Scheduler,Date,Occupation
FCFS-minRTT,0,0
FCFS-minRTT,277.0,1
FCFS-minRTT,971.0,2
FCFS-minRTT,973.0,3
FCFS-minRTT,975.0,4
FCFS-minRTT,1149.151111111111,3
FCFS-minRTT,1194.7244444444443,2
FCFS-minRTT,1295.1999999999998,1
FCFS-minRTT,1319.2977777777776,0
FCFS-minRTT,2071.0,1
FCFS-minRTT,2165.1155555555556,0
FCFS-minRTT,2266.0,1
FCFS-minRTT,2271.0,2
FCFS-minRTT,2272.0,3
FCFS-minRTT,2298.0,4
FCFS-minRTT,2300.1422222222222,3
FCFS-minRTT,2325.0,4
FCFS-minRTT,2339.0,5
FCFS-minRTT,2361.0,6
FCFS-minRTT,2369.3333333333335,5
FCFS-minRTT,2452.0,6
FCFS-minRTT,2457.0,7
FCFS-minRTT,2458.0,8
FCFS-minRTT,2460.0,9
FCFS-minRTT,3099.8444444444444,8
FCFS-minRTT,3111.2,7
FCFS-minRTT,3114.551111111111,6
FCFS-minRTT,3118.3288888888887,5
FCFS-minRTT,3122.257777777778,4
FCFS-minRTT,3125.92,3
FCFS-minRTT,3129.471111111111,2
FCFS-minRTT,3132.653333333333,1
FCFS-minRTT,3135.817777777778,0
FCFS-minRTT,9719.0,2
FCFS-minRTT,9732.222222222223,1
FCFS-minRTT,9741.693333333335,0
FCFS-minRTT,9746.0,3
FCFS-minRTT,9750.951111111111,2
FCFS-minRTT,9755.48,1
FCFS-minRTT,9861.0,2
FCFS-minRTT,9864.0,4
FCFS-minRTT,9878.0,5
FCFS-minRTT,9944.07111111111,4
FCFS-minRTT,9948.355555555554,3
FCFS-minRTT,10170.0,4
FCFS-minRTT,10577.155555555553,3
FCFS-minRTT,10626.417777777775,2
FCFS-minRTT,10711.519999999997,1
FCFS-minRTT,10712.684444444441,0
FCFS-minRTT,11272.0,1
FCFS-minRTT,11334.075555555555,0
FCFS-minRTT,11545.0,1
FCFS-minRTT,11552.324444444444,0
SRPT-minRTT,0,0
SRPT-minRTT,277.0,1
SRPT-minRTT,971.0,2
SRPT-minRTT,973.0,3
SRPT-minRTT,975.0,4
SRPT-minRTT,999.0977777777778,3
SRPT-minRTT,1040.671111111111,2
SRPT-minRTT,1141.1466666666665,1
SRPT-minRTT,1319.2977777777776,0
SRPT-minRTT,2071.0,1
SRPT-minRTT,2165.1155555555556,0
SRPT-minRTT,2266.0,1
SRPT-minRTT,2271.0,2
SRPT-minRTT,2272.0,3
SRPT-minRTT,2298.0,4
SRPT-minRTT,2300.1422222222222,3
SRPT-minRTT,2311.4977777777776,2
SRPT-minRTT,2325.0,3
SRPT-minRTT,2328.351111111111,2
SRPT-minRTT,2339.0,3
SRPT-minRTT,2342.777777777778,2
SRPT-minRTT,2361.0,3
SRPT-minRTT,2364.928888888889,2
SRPT-minRTT,2391.746666666667,1
SRPT-minRTT,2452.0,2
SRPT-minRTT,2455.662222222222,1
SRPT-minRTT,2457.0,2
SRPT-minRTT,2458.0,3
SRPT-minRTT,2460.0,4
SRPT-minRTT,2460.551111111111,3
SRPT-minRTT,2463.7155555555555,2
SRPT-minRTT,2466.8977777777777,1
SRPT-minRTT,3135.8177777777782,0
SRPT-minRTT,9719.0,2
SRPT-minRTT,9728.471111111112,1
SRPT-minRTT,9741.693333333335,0
SRPT-minRTT,9746.0,3
SRPT-minRTT,9750.528888888888,2
SRPT-minRTT,9755.48,1
SRPT-minRTT,9861.0,2
SRPT-minRTT,9864.0,4
SRPT-minRTT,9865.284444444444,3
SRPT-minRTT,9878.0,4
SRPT-minRTT,9914.546666666665,3
SRPT-minRTT,9997.617777777776,2
SRPT-minRTT,10082.719999999998,1
SRPT-minRTT,10170.0,2
SRPT-minRTT,10171.164444444445,1
SRPT-minRTT,10712.684444444441,0
SRPT-minRTT,11272.0,1
SRPT-minRTT,11334.075555555555,0
SRPT-minRTT,11545.0,1
SRPT-minRTT,11552.324444444444,0
SRPT-ECF,0,0
SRPT-ECF,277.0,1
SRPT-ECF,971.0,2
SRPT-ECF,973.0,3
SRPT-ECF,975.0,4
SRPT-ECF,992.0044444444444,4
SRPT-ECF,1011.1466666666666,3
SRPT-ECF,1067.0044444444445,2
SRPT-ECF,1091.8133333333333,2
SRPT-ECF,1166.8133333333335,1
SRPT-ECF,1269.2977777777778,1
SRPT-ECF,1344.2977777777778,0
SRPT-ECF,2071.0,1
SRPT-ECF,2115.1155555555556,1
SRPT-ECF,2190.1155555555556,0
SRPT-ECF,2266.0,1
SRPT-ECF,2271.0,2
SRPT-ECF,2272.0,3
SRPT-ECF,2298.0,4
SRPT-ECF,2315.0333333333333,3
SRPT-ECF,2325.0,4
SRPT-ECF,2330.0266666666666,3
SRPT-ECF,2335.7066666666665,3
SRPT-ECF,2339.0,4
SRPT-ECF,2339.273333333333,3
SRPT-ECF,2340.5822222222223,3
SRPT-ECF,2344.9399999999996,2
SRPT-ECF,2361.0,3
SRPT-ECF,2366.8933333333334,2
SRPT-ECF,2421.4755555555553,1
SRPT-ECF,2452.0,2
SRPT-ECF,2457.0,3
SRPT-ECF,2457.4933333333333,2
SRPT-ECF,2458.0,3
SRPT-ECF,2460.0,4
SRPT-ECF,2462.7733333333335,3
SRPT-ECF,2467.52,2
SRPT-ECF,2472.34,1
SRPT-ECF,3087.4844444444443,1
SRPT-ECF,3162.4844444444448,0
SRPT-ECF,9719.0,2
SRPT-ECF,9733.206666666667,1
SRPT-ECF,9746.0,4
SRPT-ECF,9752.793333333333,3
SRPT-ECF,9759.833333333334,2
SRPT-ECF,9767.26,1
SRPT-ECF,9861.0,2
SRPT-ECF,9864.0,4
SRPT-ECF,9865.546666666667,4
SRPT-ECF,9867.426666666666,3
SRPT-ECF,9878.0,4
SRPT-ECF,9940.546666666665,3
SRPT-ECF,9952.31111111111,3
SRPT-ECF,10027.31111111111,2
SRPT-ECF,10037.413333333332,2
SRPT-ECF,10112.413333333332,1
SRPT-ECF,10170.0,2
SRPT-ECF,10171.746666666666,1
SRPT-ECF,10667.377777777776,1
SRPT-ECF,10742.377777777776,0
SRPT-ECF,11272.0,1
SRPT-ECF,11284.075555555555,1
SRPT-ECF,11359.075555555555,0
SRPT-ECF,11545.0,1
SRPT-ECF,11555.986666666666,0
DRR-ECF,0,0
DRR-ECF,277.0,1
DRR-ECF,278.3333333333333,1
DRR-ECF,279.66666666666663,1
DRR-ECF,280.99999999999994,1
DRR-ECF,282.33333333333326,1
DRR-ECF,283.6666666666666,1
DRR-ECF,284.9999999999999,1
DRR-ECF,286.3333333333332,1
DRR-ECF,287.6666666666665,1
DRR-ECF,288.99999999999983,1
DRR-ECF,290.33333333333314,1
DRR-ECF,291.66666666666646,1
DRR-ECF,292.9999999999998,1
DRR-ECF,294.3333333333331,1
DRR-ECF,295.6666666666664,1
DRR-ECF,296.9999999999997,1
DRR-ECF,298.33333333333303,1
DRR-ECF,299.66666666666634,1
DRR-ECF,300.99999999999966,1
DRR-ECF,302.333333333333,1
DRR-ECF,303.6666666666663,1
DRR-ECF,304.9999999999996,1
DRR-ECF,306.3333333333329,1
DRR-ECF,307.66666666666623,1
DRR-ECF,308.99999999999955,1
DRR-ECF,310.33333333333286,1
DRR-ECF,311.6666666666662,1
DRR-ECF,312.9999999999995,1
DRR-ECF,314.3333333333328,1
DRR-ECF,315.6666666666661,1
DRR-ECF,316.99999999999943,1
DRR-ECF,318.33333333333275,1
DRR-ECF,319.66666666666606,1
DRR-ECF,320.9999999999994,1
DRR-ECF,322.3333333333327,1
DRR-ECF,323.666666666666,1
DRR-ECF,324.9999999999993,1
DRR-ECF,326.33333333333263,1
DRR-ECF,327.66666666666595,1
DRR-ECF,328.99999999999926,1
DRR-ECF,330.3333333333326,1
DRR-ECF,331.6666666666659,1
DRR-ECF,332.9999999999992,1
DRR-ECF,334.3333333333325,1
DRR-ECF,335.66666666666583,1
DRR-ECF,336.99999999999915,1
DRR-ECF,338.33333333333246,1
DRR-ECF,339.6666666666658,1
DRR-ECF,340.9999999999991,1
DRR-ECF,342.3333333333324,1
DRR-ECF,343.6666666666657,1
DRR-ECF,344.99999999999903,1
DRR-ECF,346.33333333333235,1
DRR-ECF,347.66666666666566,1
DRR-ECF,348.999999999999,1
DRR-ECF,350.3333333333323,1
DRR-ECF,351.6666666666656,1
DRR-ECF,352.9999999999989,1
DRR-ECF,354.33333333333223,1
DRR-ECF,355.66666666666555,1
DRR-ECF,356.99999999999886,1
DRR-ECF,358.3333333333322,1
DRR-ECF,359.6666666666655,1
DRR-ECF,360.9999999999988,1
DRR-ECF,362.3333333333321,1
DRR-ECF,363.66666666666544,1
DRR-ECF,364.99999999999875,1
DRR-ECF,366.33333333333206,1
DRR-ECF,367.6666666666654,1
DRR-ECF,368.9999999999987,1
DRR-ECF,370.333333333332,1
DRR-ECF,371.6666666666653,1
DRR-ECF,372.99999999999864,1
DRR-ECF,374.33333333333195,1
DRR-ECF,375.66666666666526,1
DRR-ECF,376.9999999999986,1
DRR-ECF,378.3333333333319,1
DRR-ECF,379.6666666666652,1
DRR-ECF,380.9999999999985,1
DRR-ECF,382.33333333333184,1
DRR-ECF,383.66666666666515,1
DRR-ECF,384.99999999999847,1
DRR-ECF,386.3333333333318,1
DRR-ECF,387.6666666666651,1
DRR-ECF,388.9999999999984,1
DRR-ECF,390.3333333333317,1
DRR-ECF,391.66666666666504,1
DRR-ECF,392.99999999999835,1
DRR-ECF,394.33333333333167,1
DRR-ECF,395.666666666665,1
DRR-ECF,396.9999999999983,1
DRR-ECF,398.3333333333316,1
DRR-ECF,399.6666666666649,1
DRR-ECF,400.99999999999824,1
DRR-ECF,402.33333333333155,1
DRR-ECF,403.66666666666487,1
DRR-ECF,404.9999999999982,1
DRR-ECF,406.3333333333315,1
DRR-ECF,407.6666666666648,1
DRR-ECF,408.9999999999981,1
DRR-ECF,410.33333333333144,1
DRR-ECF,411.66666666666475,1
DRR-ECF,412.99999999999807,1
DRR-ECF,414.3333333333314,1
DRR-ECF,415.6666666666647,1
DRR-ECF,416.999999999998,1
DRR-ECF,418.3333333333313,1
DRR-ECF,419.66666666666464,1
DRR-ECF,420.99999999999795,1
DRR-ECF,422.33333333333127,1
DRR-ECF,423.6666666666646,1
DRR-ECF,424.9999999999979,1
DRR-ECF,426.3333333333312,1
DRR-ECF,427.6666666666645,1
DRR-ECF,428.99999999999784,1
DRR-ECF,430.33333333333115,1
DRR-ECF,431.66666666666447,1
DRR-ECF,432.9999999999978,1
DRR-ECF,434.3333333333311,1
DRR-ECF,435.6666666666644,1
DRR-ECF,436.9999999999977,1
DRR-ECF,438.33333333333104,1
DRR-ECF,439.66666666666436,1
DRR-ECF,440.99999999999767,1
DRR-ECF,442.333333333331,1
DRR-ECF,443.6666666666643,1
DRR-ECF,444.9999999999976,1
DRR-ECF,446.3333333333309,1
DRR-ECF,447.66666666666424,1
DRR-ECF,448.99999999999756,1
DRR-ECF,450.33333333333087,1
DRR-ECF,451.6666666666642,1
DRR-ECF,452.9999999999975,1
DRR-ECF,454.3333333333308,1
DRR-ECF,455.6666666666641,1
DRR-ECF,456.99999999999744,1
DRR-ECF,458.33333333333076,1
DRR-ECF,459.66666666666407,1
DRR-ECF,460.9999999999974,1
DRR-ECF,462.3333333333307,1
DRR-ECF,463.666666666664,1
DRR-ECF,464.9999999999973,1
DRR-ECF,466.33333333333064,1
DRR-ECF,467.66666666666396,1
DRR-ECF,468.99999999999727,1
DRR-ECF,470.3333333333306,1
DRR-ECF,471.6666666666639,1
DRR-ECF,472.9999999999972,1
DRR-ECF,474.33333333333053,1
DRR-ECF,475.66666666666384,1
DRR-ECF,476.99999999999716,1
DRR-ECF,478.3333333333305,1
DRR-ECF,479.6666666666638,1
DRR-ECF,480.9999999999971,1
DRR-ECF,482.3333333333304,1
DRR-ECF,483.66666666666373,1
DRR-ECF,484.99999999999704,1
DRR-ECF,486.33333333333036,1
DRR-ECF,487.6666666666637,1
DRR-ECF,488.999999999997,1
DRR-ECF,490.3333333333303,1
DRR-ECF,491.6666666666636,1
DRR-ECF,492.99999999999693,1
DRR-ECF,494.33333333333024,1
DRR-ECF,495.66666666666356,1
DRR-ECF,496.9999999999969,1
DRR-ECF,498.3333333333302,1
DRR-ECF,499.6666666666635,1
DRR-ECF,500.9999999999968,1
DRR-ECF,502.33333333333013,1
DRR-ECF,503.66666666666345,1
DRR-ECF,504.99999999999676,1
DRR-ECF,506.3333333333301,1
DRR-ECF,507.6666666666634,1
DRR-ECF,508.9999999999967,1
DRR-ECF,510.33333333333,1
DRR-ECF,511.66666666666333,1
DRR-ECF,512.9999999999967,1
DRR-ECF,514.33333333333,1
DRR-ECF,515.6666666666633,1
DRR-ECF,516.9999999999966,1
DRR-ECF,518.33333333333,1
DRR-ECF,519.6666666666632,1
DRR-ECF,520.9999999999966,1
DRR-ECF,522.3333333333298,1
DRR-ECF,523.6666666666632,1
DRR-ECF,524.9999999999965,1
DRR-ECF,526.3333333333298,1
DRR-ECF,527.6666666666631,1
DRR-ECF,528.9999999999965,1
DRR-ECF,530.3333333333297,1
DRR-ECF,531.6666666666631,1
DRR-ECF,532.9999999999964,1
DRR-ECF,534.3333333333297,1
DRR-ECF,535.666666666663,1
DRR-ECF,536.9999999999964,1
DRR-ECF,538.3333333333296,1
DRR-ECF,539.666666666663,1
DRR-ECF,540.9999999999962,1
DRR-ECF,542.3333333333296,1
DRR-ECF,543.6666666666629,1
DRR-ECF,544.9999999999962,1
DRR-ECF,546.3333333333295,1
DRR-ECF,547.6666666666629,1
DRR-ECF,548.9999999999961,1
DRR-ECF,550.3333333333295,1
DRR-ECF,551.6666666666628,1
DRR-ECF,552.9999999999961,1
DRR-ECF,554.3333333333294,1
DRR-ECF,555.6666666666628,1
DRR-ECF,556.999999999996,1
DRR-ECF,558.3333333333294,1
DRR-ECF,559.6666666666626,1
DRR-ECF,560.999999999996,1
DRR-ECF,562.3333333333293,1
DRR-ECF,563.6666666666626,1
DRR-ECF,564.9999999999959,1
DRR-ECF,566.3333333333293,1
DRR-ECF,567.6666666666625,1
DRR-ECF,568.9999999999959,1
DRR-ECF,570.3333333333292,1
DRR-ECF,571.6666666666625,1
DRR-ECF,572.9999999999958,1
DRR-ECF,574.3333333333292,1
DRR-ECF,575.6666666666624,1
DRR-ECF,576.9999999999958,1
DRR-ECF,578.333333333329,1
DRR-ECF,579.6666666666624,1
DRR-ECF,580.9999999999957,1
DRR-ECF,582.333333333329,1
DRR-ECF,583.6666666666623,1
DRR-ECF,584.9999999999957,1
DRR-ECF,586.3333333333289,1
DRR-ECF,587.6666666666623,1
DRR-ECF,588.9999999999956,1
DRR-ECF,590.3333333333289,1
DRR-ECF,591.6666666666622,1
DRR-ECF,592.9999999999956,1
DRR-ECF,594.3333333333288,1
DRR-ECF,595.6666666666622,1
DRR-ECF,596.9999999999955,1
DRR-ECF,598.3333333333288,1
DRR-ECF,599.6666666666621,1
DRR-ECF,600.9999999999955,1
DRR-ECF,602.3333333333287,1
DRR-ECF,603.6666666666621,1
DRR-ECF,604.9999999999953,1
DRR-ECF,606.3333333333287,1
DRR-ECF,607.666666666662,1
DRR-ECF,608.9999999999953,1
DRR-ECF,610.3333333333286,1
DRR-ECF,611.666666666662,1
DRR-ECF,612.9999999999952,1
DRR-ECF,614.3333333333286,1
DRR-ECF,615.6666666666619,1
DRR-ECF,616.9999999999952,1
DRR-ECF,618.3333333333285,1
DRR-ECF,619.6666666666619,1
DRR-ECF,620.9999999999951,1
DRR-ECF,622.3333333333285,1
DRR-ECF,623.6666666666617,1
DRR-ECF,624.9999999999951,1
DRR-ECF,626.3333333333284,1
DRR-ECF,627.6666666666617,1
DRR-ECF,628.999999999995,1
DRR-ECF,630.3333333333284,1
DRR-ECF,631.6666666666616,1
DRR-ECF,632.999999999995,1
DRR-ECF,634.3333333333283,1
DRR-ECF,635.6666666666616,1
DRR-ECF,636.9999999999949,1
DRR-ECF,638.3333333333283,1
DRR-ECF,639.6666666666615,1
DRR-ECF,640.9999999999949,1
DRR-ECF,642.3333333333281,1
DRR-ECF,643.6666666666615,1
DRR-ECF,644.9999999999948,1
DRR-ECF,646.3333333333281,1
DRR-ECF,647.6666666666614,1
DRR-ECF,648.9999999999948,1
DRR-ECF,650.333333333328,1
DRR-ECF,651.6666666666614,1
DRR-ECF,652.9999999999947,1
DRR-ECF,654.333333333328,1
DRR-ECF,655.6666666666613,1
DRR-ECF,656.9999999999947,1
DRR-ECF,658.3333333333279,1
DRR-ECF,659.6666666666613,1
DRR-ECF,660.9999999999945,1
DRR-ECF,662.3333333333279,1
DRR-ECF,663.6666666666612,1
DRR-ECF,664.9999999999945,1
DRR-ECF,666.3333333333278,1
DRR-ECF,667.6666666666612,1
DRR-ECF,668.9999999999944,1
DRR-ECF,670.3333333333278,1
DRR-ECF,671.6666666666611,1
DRR-ECF,672.9999999999944,1
DRR-ECF,674.3333333333277,1
DRR-ECF,675.6666666666611,1
DRR-ECF,676.9999999999943,1
DRR-ECF,678.3333333333277,1
DRR-ECF,679.666666666661,1
DRR-ECF,680.9999999999943,1
DRR-ECF,682.3333333333276,1
DRR-ECF,683.666666666661,1
DRR-ECF,684.9999999999942,1
DRR-ECF,686.3333333333276,1
DRR-ECF,687.6666666666608,1
DRR-ECF,688.9999999999942,1
DRR-ECF,690.3333333333275,1
DRR-ECF,691.6666666666608,1
DRR-ECF,692.9999999999941,1
DRR-ECF,694.3333333333275,1
DRR-ECF,695.6666666666607,1
DRR-ECF,696.9999999999941,1
DRR-ECF,698.3333333333273,1
DRR-ECF,699.6666666666607,1
DRR-ECF,700.999999999994,1
DRR-ECF,702.3333333333273,1
DRR-ECF,703.6666666666606,1
DRR-ECF,704.999999999994,1
DRR-ECF,706.3333333333272,1
DRR-ECF,707.6666666666606,1
DRR-ECF,708.9999999999939,1
DRR-ECF,710.3333333333272,1
DRR-ECF,711.6666666666605,1
DRR-ECF,712.9999999999939,1
DRR-ECF,714.3333333333271,1
DRR-ECF,715.6666666666605,1
DRR-ECF,716.9999999999937,1
DRR-ECF,718.3333333333271,1
DRR-ECF,719.6666666666604,1
DRR-ECF,720.9999999999937,1
DRR-ECF,722.333333333327,1
DRR-ECF,723.6666666666604,1
DRR-ECF,724.9999999999936,1
DRR-ECF,726.333333333327,1
DRR-ECF,727.6666666666603,1
DRR-ECF,728.9999999999936,1
DRR-ECF,730.3333333333269,1
DRR-ECF,731.6666666666603,1
DRR-ECF,732.9999999999935,1
DRR-ECF,734.3333333333269,1
DRR-ECF,735.6666666666601,1
DRR-ECF,736.9999999999935,1
DRR-ECF,738.3333333333268,1
DRR-ECF,739.6666666666601,1
DRR-ECF,740.9999999999934,1
DRR-ECF,742.3333333333268,1
DRR-ECF,743.66666666666,1
DRR-ECF,744.9999999999934,1
DRR-ECF,746.3333333333267,1
DRR-ECF,747.66666666666,1
DRR-ECF,748.9999999999933,1
DRR-ECF,750.3333333333267,1
DRR-ECF,751.6666666666599,1
DRR-ECF,752.9999999999933,1
DRR-ECF,754.3333333333266,1
DRR-ECF,755.6666666666599,1
DRR-ECF,756.9999999999932,1
DRR-ECF,758.3333333333266,1
DRR-ECF,759.6666666666598,1
DRR-ECF,760.9999999999932,1
DRR-ECF,762.3333333333264,1
DRR-ECF,763.6666666666598,1
DRR-ECF,764.9999999999931,1
DRR-ECF,766.3333333333264,1
DRR-ECF,767.6666666666597,1
DRR-ECF,768.9999999999931,1
DRR-ECF,770.3333333333263,1
DRR-ECF,771.6666666666597,1
DRR-ECF,772.999999999993,1
DRR-ECF,774.3333333333263,1
DRR-ECF,775.6666666666596,1
DRR-ECF,776.999999999993,1
DRR-ECF,778.3333333333262,1
DRR-ECF,779.6666666666596,1
DRR-ECF,780.9999999999928,1
DRR-ECF,782.3333333333262,1
DRR-ECF,783.6666666666595,1
DRR-ECF,784.9999999999928,1
DRR-ECF,786.3333333333261,1
DRR-ECF,787.6666666666595,1
DRR-ECF,788.9999999999927,1
DRR-ECF,790.3333333333261,1
DRR-ECF,791.6666666666594,1
DRR-ECF,792.9999999999927,1
DRR-ECF,794.333333333326,1
DRR-ECF,795.6666666666594,1
DRR-ECF,796.9999999999926,1
DRR-ECF,798.333333333326,1
DRR-ECF,799.6666666666592,1
DRR-ECF,800.9999999999926,1
DRR-ECF,802.3333333333259,1
DRR-ECF,803.6666666666592,1
DRR-ECF,804.9999999999925,1
DRR-ECF,806.3333333333259,1
DRR-ECF,807.6666666666591,1
DRR-ECF,808.9999999999925,1
DRR-ECF,810.3333333333258,1
DRR-ECF,811.6666666666591,1
DRR-ECF,812.9999999999924,1
DRR-ECF,814.3333333333258,1
DRR-ECF,815.666666666659,1
DRR-ECF,816.9999999999924,1
DRR-ECF,818.3333333333256,1
DRR-ECF,819.666666666659,1
DRR-ECF,820.9999999999923,1
DRR-ECF,822.3333333333256,1
DRR-ECF,823.6666666666589,1
DRR-ECF,824.9999999999923,1
DRR-ECF,826.3333333333255,1
DRR-ECF,827.6666666666589,1
DRR-ECF,828.9999999999922,1
DRR-ECF,830.3333333333255,1
DRR-ECF,831.6666666666588,1
DRR-ECF,832.9999999999922,1
DRR-ECF,834.3333333333254,1
DRR-ECF,835.6666666666588,1
DRR-ECF,836.999999999992,1
DRR-ECF,838.3333333333254,1
DRR-ECF,839.6666666666587,1
DRR-ECF,840.999999999992,1
DRR-ECF,842.3333333333253,1
DRR-ECF,843.6666666666587,1
DRR-ECF,844.9999999999919,1
DRR-ECF,846.3333333333253,1
DRR-ECF,847.6666666666586,1
DRR-ECF,848.9999999999919,1
DRR-ECF,850.3333333333252,1
DRR-ECF,851.6666666666586,1
DRR-ECF,852.9999999999918,1
DRR-ECF,854.3333333333252,1
DRR-ECF,855.6666666666584,1
DRR-ECF,856.9999999999918,1
DRR-ECF,858.3333333333251,1
DRR-ECF,859.6666666666584,1
DRR-ECF,860.9999999999917,1
DRR-ECF,862.3333333333251,1
DRR-ECF,863.6666666666583,1
DRR-ECF,864.9999999999917,1
DRR-ECF,866.333333333325,1
DRR-ECF,867.6666666666583,1
DRR-ECF,868.9999999999916,1
DRR-ECF,870.333333333325,1
DRR-ECF,871.6666666666582,1
DRR-ECF,872.9999999999916,1
DRR-ECF,874.3333333333248,1
DRR-ECF,875.6666666666582,1
DRR-ECF,876.9999999999915,1
DRR-ECF,878.3333333333248,1
DRR-ECF,879.6666666666581,1
DRR-ECF,880.9999999999915,1
DRR-ECF,882.3333333333247,1
DRR-ECF,883.6666666666581,1
DRR-ECF,884.9999999999914,1
DRR-ECF,886.3333333333247,1
DRR-ECF,887.666666666658,1
DRR-ECF,888.9999999999914,1
DRR-ECF,890.3333333333246,1
DRR-ECF,891.666666666658,1
DRR-ECF,892.9999999999912,1
DRR-ECF,894.3333333333246,1
DRR-ECF,895.6666666666579,1
DRR-ECF,896.9999999999912,1
DRR-ECF,898.3333333333245,1
DRR-ECF,899.6666666666579,1
DRR-ECF,900.9999999999911,1
DRR-ECF,902.3333333333245,1
DRR-ECF,903.6666666666578,1
DRR-ECF,904.9999999999911,1
DRR-ECF,906.3333333333244,1
DRR-ECF,907.6666666666578,1
DRR-ECF,908.999999999991,1
DRR-ECF,910.3333333333244,1
DRR-ECF,911.6666666666576,1
DRR-ECF,912.999999999991,1
DRR-ECF,914.3333333333243,1
DRR-ECF,915.6666666666576,1
DRR-ECF,916.9999999999909,1
DRR-ECF,918.3333333333243,1
DRR-ECF,919.6666666666575,1
DRR-ECF,920.9999999999909,1
DRR-ECF,922.3333333333242,1
DRR-ECF,923.6666666666575,1
DRR-ECF,924.9999999999908,1
DRR-ECF,926.3333333333242,1
DRR-ECF,927.6666666666574,1
DRR-ECF,928.9999999999908,1
DRR-ECF,930.333333333324,1
DRR-ECF,931.6666666666574,1
DRR-ECF,932.9999999999907,1
DRR-ECF,934.333333333324,1
DRR-ECF,935.6666666666573,1
DRR-ECF,936.9999999999907,1
DRR-ECF,938.3333333333239,1
DRR-ECF,939.6666666666573,1
DRR-ECF,940.9999999999906,1
DRR-ECF,942.3333333333239,1
DRR-ECF,943.6666666666572,1
DRR-ECF,944.9999999999906,1
DRR-ECF,946.3333333333238,1
DRR-ECF,947.6666666666572,1
DRR-ECF,948.9999999999905,1
DRR-ECF,950.3333333333238,1
DRR-ECF,951.6666666666571,1
DRR-ECF,952.9999999999905,1
DRR-ECF,954.3333333333237,1
DRR-ECF,955.6666666666571,1
DRR-ECF,956.9999999999903,1
DRR-ECF,958.3333333333237,1
DRR-ECF,959.666666666657,1
DRR-ECF,960.9999999999903,1
DRR-ECF,962.3333333333236,1
DRR-ECF,963.666666666657,1
DRR-ECF,964.9999999999902,1
DRR-ECF,966.3333333333236,1
DRR-ECF,967.6666666666569,1
DRR-ECF,968.9999999999902,1
DRR-ECF,970.3333333333235,1
DRR-ECF,971.0,2
DRR-ECF,971.3333333333186,2
DRR-ECF,971.6666666666371,2
DRR-ECF,972.666666666652,2
DRR-ECF,973.0,3
DRR-ECF,973.6666666666667,3
DRR-ECF,974.3333333333186,3
DRR-ECF,975.0,4
DRR-ECF,975.3333333333112,4
DRR-ECF,975.6666666666224,4
DRR-ECF,976.6666666666446,4
DRR-ECF,977.3333333333186,4
DRR-ECF,977.6666666666666,4
DRR-ECF,978.666666666652,4
DRR-ECF,979.6666666666372,4
DRR-ECF,979.9999999999484,4
DRR-ECF,980.3333333332596,4
DRR-ECF,981.3333333332818,4
DRR-ECF,981.6666666666298,4
DRR-ECF,982.3333333333038,4
DRR-ECF,983.0,4
DRR-ECF,983.6666666666963,4
DRR-ECF,984.000000000022,4
DRR-ECF,984.3333333333333,4
DRR-ECF,985.6666666666665,4
DRR-ECF,986.3333333333037,4
DRR-ECF,986.9999999999999,4
DRR-ECF,987.3333333333186,4
DRR-ECF,987.6666666666373,4
DRR-ECF,988.666666666652,4
DRR-ECF,989.6666666666665,4
DRR-ECF,989.9999999999852,4
DRR-ECF,990.333333333304,4
DRR-ECF,990.9999999999999,4
DRR-ECF,991.3333333333186,4
DRR-ECF,991.6666666666957,4
DRR-ECF,992.666666666652,4
DRR-ECF,993.6666666666082,4
DRR-ECF,994.3333333332457,4
DRR-ECF,994.9999999998831,4
DRR-ECF,995.666666666579,4
DRR-ECF,995.9999999999561,4
DRR-ECF,996.3333333332749,4
DRR-ECF,997.3333333333478,4
DRR-ECF,998.0000000000437,4
DRR-ECF,998.3333333334207,4
DRR-ECF,998.6666666666811,4
DRR-ECF,998.9999999999416,4
DRR-ECF,1000.0000000000143,4
DRR-ECF,1000.3333333332748,4
DRR-ECF,1001.0000000000872,4
DRR-ECF,1001.6666666666081,4
DRR-ECF,1002.3333333331291,4
DRR-ECF,1002.6666666666811,4
DRR-ECF,1002.9999999999417,4
DRR-ECF,1004.333333333275,4
DRR-ECF,1005.0000000000875,4
DRR-ECF,1005.6666666666083,4
DRR-ECF,1006.0000000000146,4
DRR-ECF,1006.3333333334208,4
DRR-ECF,1007.3333333333478,4
DRR-ECF,1008.3333333332749,4
DRR-ECF,1008.6666666666811,4
DRR-ECF,1009.0000000000872,4
DRR-ECF,1009.6666666666081,4
DRR-ECF,1010.0000000000143,4
DRR-ECF,1010.3333333331291,4
DRR-ECF,1011.3333333333476,4
DRR-ECF,1012.3333333332748,4
DRR-ECF,1013.0000000000873,4
DRR-ECF,1013.6666666668997,4
DRR-ECF,1014.3333333334207,4
DRR-ECF,1014.6666666666812,4
DRR-ECF,1014.9999999999417,4
DRR-ECF,1016.0000000000146,4
DRR-ECF,1016.6666666665354,4
DRR-ECF,1017.0000000000873,4
DRR-ECF,1017.3333333333478,4
DRR-ECF,1017.6666666666083,4
DRR-ECF,1018.6666666666812,4
DRR-ECF,1018.9999999999417,4
DRR-ECF,1019.6666666667539,4
DRR-ECF,1020.333333333275,4
DRR-ECF,1020.999999999796,4
DRR-ECF,1021.3333333333478,4
DRR-ECF,1021.6666666666083,4
DRR-ECF,1021.8355555554971,4
DRR-ECF,1022.9155555554972,4
DRR-ECF,1023.0422222223094,4
DRR-ECF,1023.1688888891215,4
DRR-ECF,1024.0422222222367,4
DRR-ECF,1024.9155555553518,4
DRR-ECF,1025.37555555557,4
DRR-ECF,1025.8355555557882,4
DRR-ECF,1026.7088888889032,4
DRR-ECF,1027.4788888888668,4
DRR-ECF,1027.9388888890849,4
DRR-ECF,1028.2488888888306,4
DRR-ECF,1028.8122222222,4
DRR-ECF,1029.3755555555695,4
DRR-ECF,1030.1455555555335,4
DRR-ECF,1030.3238888889211,4
DRR-ECF,1030.5022222223088,4
DRR-ECF,1031.6572222222546,4
DRR-ECF,1032.4272222222185,4
DRR-ECF,1032.8122222222005,4
DRR-ECF,1033.7605555555517,4
DRR-ECF,1034.4413888888218,4
DRR-ECF,1034.6197222222092,4
DRR-ECF,1035.122222222092,4
DRR-ECF,1035.9530555555427,4
DRR-ECF,1036.7838888889933,4
DRR-ECF,1037.286388888876,4
DRR-ECF,1037.6876388889978,4
DRR-ECF,1038.0888888891197,4
DRR-ECF,1039.020972222331,4
DRR-ECF,1039.5234722222137,4
DRR-ECF,1039.9530555555425,4
DRR-ECF,1040.8568055555472,4
DRR-ECF,1041.3370138887565,4
DRR-ECF,1041.7382638888785,4
DRR-ECF,1041.8172222219655,4
DRR-ECF,1043.0715972222117,4
DRR-ECF,1044.325972222458,4
DRR-ECF,1044.404930555545,4
DRR-ECF,1045.2185763891257,4
DRR-ECF,1046.0322222227062,4
DRR-ECF,1046.5519097224592,4
DRR-ECF,1046.6308680555462,4
DRR-ECF,1047.071597222212,4
DRR-ECF,1047.9642013888795,4
DRR-ECF,1048.0375868052984,4
DRR-ECF,1048.1109722217172,4
DRR-ECF,1048.8512326388786,4
DRR-ECF,1049.5914930560402,4
DRR-ECF,1050.184565972212,4
DRR-ECF,1050.7776388883838,4
DRR-ECF,1051.5178993055456,4
DRR-ECF,1052.4077170138792,4
DRR-ECF,1053.000789930051,4
DRR-ECF,1053.2975347222127,4
DRR-ECF,1053.7410503472124,4
DRR-ECF,1054.1845659722123,4
DRR-ECF,1055.0715972222117,4
DRR-ECF,1055.0743836805457,4
DRR-ECF,1056.4063237847122,4
DRR-ECF,1057.2961414930458,4
DRR-ECF,1057.7382638888785,4
DRR-ECF,1058.629474826379,4
DRR-ECF,1059.517202690962,4
DRR-ECF,1059.5185959201287,4
DRR-ECF,1060.4049305555452,4
DRR-ECF,1060.8519292534622,4
DRR-ECF,1061.298927951379,4
DRR-ECF,1062.1852625867957,4
DRR-ECF,1062.1877007378378,4
DRR-ECF,1062.1901388888796,4
DRR-ECF,1063.5210340711712,4
DRR-ECF,1064.4073687065875,4
DRR-ECF,1064.851929253463,4
DRR-ECF,1065.7407020399207,4
DRR-ECF,1066.6272108289832,4
DRR-ECF,1066.6296489800247,4
DRR-ECF,1067.5137196180456,4
DRR-ECF,1067.9629823133582,4
DRR-ECF,1068.4122450086707,4
DRR-ECF,1069.2963156466915,4
DRR-ECF,1069.301104871952,4
DRR-ECF,1069.3058940972126,4
DRR-ECF,1070.6344382052853,4
DRR-ECF,1071.518508843306,4
DRR-ECF,1071.6651755099729,3
DRR-ECF,1071.9629823133582,3
DRR-ECF,1072.9937196180456,3
DRR-ECF,1072.9985088433061,3
DRR-ECF,1074.024456922733,3
DRR-ECF,1074.3318421766394,3
DRR-ECF,1074.6344382052855,3
DRR-ECF,1074.6392274305458,3
DRR-ECF,1075.967771538619,3
DRR-ECF,1076.9937196180458,3
DRR-ECF,1077.296315646692,3
DRR-ECF,1078.327052951379,3
DRR-ECF,1078.3318421766392,3
DRR-ECF,1079.3577902560662,3
DRR-ECF,1079.6651755099726,3
DRR-ECF,1079.9677715386188,3
DRR-ECF,1079.9725607638788,3
DRR-ECF,1081.3011048719522,3
DRR-ECF,1081.3496489800254,3
DRR-ECF,1082.327052951379,3
DRR-ECF,1083.304456922733,3
DRR-ECF,1083.6603862847126,3
DRR-ECF,1084.016315646692,3
DRR-ECF,1084.3051755099725,3
DRR-ECF,1084.516674940312,3
DRR-ECF,1084.7281743706512,3
DRR-ECF,1085.4940789116656,3
DRR-ECF,1086.2599834526802,3
DRR-ECF,1086.8274122449989,3
DRR-ECF,1087.6655317518334,3
DRR-ECF,1088.2329605441523,3
DRR-ECF,1088.503651258668,3
DRR-ECF,1089.4940789116656,3
DRR-ECF,1089.5662938774858,3
DRR-ECF,1090.863519727909,3
DRR-ECF,1092.1607455783324,3
DRR-ECF,1092.1968530612423,3
DRR-ECF,1093.5121326531207,3
DRR-ECF,1093.5482401360307,3
DRR-ECF,1094.8274122449989,3
DRR-ECF,1094.8635197279089,3
DRR-ECF,1094.881573469364,3
DRR-ECF,1096.2058799319698,3
DRR-ECF,1097.5301863945756,3
DRR-ECF,1097.5392132653033,3
DRR-ECF,1098.8680331632727,3
DRR-ECF,1098.8770600340004,3
DRR-ECF,1100.1968530612423,3
DRR-ECF,1100.2058799319702,3
DRR-ECF,1100.2103933673336,3
DRR-ECF,1101.541469982985,3
DRR-ECF,1102.8725465986367,3
DRR-ECF,1102.8748033163183,3
DRR-ECF,1104.2070082908108,3
DRR-ECF,1104.2092650084926,3
DRR-ECF,1105.5392132653033,3
DRR-ECF,1105.541469982985,3
DRR-ECF,1105.542598341826,3
DRR-ECF,1106.875367495739,3
DRR-ECF,1108.2081366496518,3
DRR-ECF,1108.2087008290723,3
DRR-ECF,1109.5417520726953,3
DRR-ECF,1109.5423162521156,3
DRR-ECF,1110.8748033163183,3
DRR-ECF,1110.875367495739,3
DRR-ECF,1110.8756495854489,3
DRR-ECF,1112.2088418739274,3
DRR-ECF,1113.5420341624058,3
DRR-ECF,1113.542175207261,3
DRR-ECF,1114.8754380181667,3
DRR-ECF,1114.8755790630216,3
DRR-ECF,1116.2087008290725,3
DRR-ECF,1116.2088418739277,3
DRR-ECF,1116.208912396355,3
DRR-ECF,1117.5422104684744,3
DRR-ECF,1118.8755085405942,3
DRR-ECF,1118.8755438018077,3
DRR-ECF,1120.2088595045343,3
DRR-ECF,1120.208894765748,3
DRR-ECF,1121.5421752072607,3
DRR-ECF,1121.5422104684742,3
DRR-ECF,1121.5422280990815,3
DRR-ECF,1122.8755526171112,3
DRR-ECF,1124.208877135141,3
DRR-ECF,1124.2088859504445,3
DRR-ECF,1125.542214876126,3
DRR-ECF,1125.5422236914296,3
DRR-ECF,1126.8755438018075,3
DRR-ECF,1126.875552617111,3
DRR-ECF,1126.8755570247629,3
DRR-ECF,1128.2088881542704,3
DRR-ECF,1129.5422192837777,3
DRR-ECF,1129.542221487604,3
DRR-ECF,1130.875553719024,3
DRR-ECF,1130.87555592285,3
DRR-ECF,1131.23555592285,2
DRR-ECF,1131.7222220385604,2
DRR-ECF,1132.2088859504445,2
DRR-ECF,1133.0555553718937,2
DRR-ECF,1133.9022236914298,2
DRR-ECF,1133.9022247933428,2
DRR-ECF,1134.3888881542705,2
DRR-ECF,1134.875550413285,2
DRR-ECF,1135.7222214876037,2
DRR-ECF,1136.5688914600094,2
DRR-ECF,1136.5688925619224,2
DRR-ECF,1137.0555542699806,2
DRR-ECF,1137.5422148761254,2
DRR-ECF,1138.3888876033138,2
DRR-ECF,1139.2355592285892,2
DRR-ECF,1139.2355603305025,2
DRR-ECF,1139.7222203856907,2
DRR-ECF,1140.2088793389657,2
DRR-ECF,1141.055553719024,2
DRR-ECF,1141.902226997169,2
DRR-ECF,1141.902228099082,2
DRR-ECF,1142.3888865014007,2
DRR-ECF,1142.875543801806,2
DRR-ECF,1143.722219834734,2
DRR-ECF,1144.5688947657488,2
DRR-ECF,1144.5688958676621,2
DRR-ECF,1145.0555526171108,2
DRR-ECF,1145.5422082646464,2
DRR-ECF,1146.388885950444,2
DRR-ECF,1147.2355625343287,2
DRR-ECF,1147.2355636362417,2
DRR-ECF,1147.722218732821,2
DRR-ECF,1148.2088727274868,2
DRR-ECF,1149.0555520661542,2
DRR-ECF,1149.9022303029085,2
DRR-ECF,1149.9022314048218,2
DRR-ECF,1150.388884848531,2
DRR-ECF,1150.8755371903271,2
DRR-ECF,1151.7222181818643,2
DRR-ECF,1152.5688980714883,2
DRR-ECF,1152.5688991734014,2
DRR-ECF,1153.055550964241,2
DRR-ECF,1153.5422016531675,2
DRR-ECF,1154.3888842975744,2
DRR-ECF,1155.2355658400681,2
DRR-ECF,1155.2355669419815,2
DRR-ECF,1155.7222170799512,2
DRR-ECF,1156.2088661160078,2
DRR-ECF,1157.0555504132844,2
DRR-ECF,1157.902233608648,2
DRR-ECF,1157.902234710561,2
DRR-ECF,1158.3888831956613,2
DRR-ECF,1158.8755305788482,2
DRR-ECF,1159.7222165289945,2
DRR-ECF,1160.5689013772278,2
DRR-ECF,1160.5689024791411,2
DRR-ECF,1161.0555493113714,2
DRR-ECF,1161.5421950416885,2
DRR-ECF,1162.3888826447046,2
DRR-ECF,1163.2355691458076,2
DRR-ECF,1163.2355702477207,2
DRR-ECF,1163.7222154270814,2
DRR-ECF,1164.2088595045288,2
DRR-ECF,1165.0555487604147,2
DRR-ECF,1165.9022369143875,2
DRR-ECF,1165.9022380163008,2
DRR-ECF,1166.3888815427915,2
DRR-ECF,1166.8755239673692,2
DRR-ECF,1167.7222148761248,2
DRR-ECF,1168.5689046829673,2
DRR-ECF,1168.5689057848804,2
DRR-ECF,1169.0555476585016,2
DRR-ECF,1169.5421884302095,2
DRR-ECF,1170.3888809918349,2
DRR-ECF,1171.2355724515471,2
DRR-ECF,1171.2355735534604,2
DRR-ECF,1171.7222137742117,2
DRR-ECF,1172.2088528930499,2
DRR-ECF,1173.055547107545,2
DRR-ECF,1173.902240220127,2
DRR-ECF,1173.90224132204,2
DRR-ECF,1174.3888798899218,2
DRR-ECF,1174.8755173558902,2
DRR-ECF,1175.722213223255,2
DRR-ECF,1176.5689079887068,2
DRR-ECF,1176.56890909062,2
DRR-ECF,1177.0555460056319,2
DRR-ECF,1177.5421818187306,2
DRR-ECF,1178.3888793389651,2
DRR-ECF,1179.2355757572866,2
DRR-ECF,1179.2355768591997,2
DRR-ECF,1179.722212121342,2
DRR-ECF,1180.208846281571,2
DRR-ECF,1181.0555454546752,2
DRR-ECF,1181.9022435258664,2
DRR-ECF,1181.9022446277797,2
DRR-ECF,1182.388878237052,2
DRR-ECF,1182.8755107444113,2
DRR-ECF,1183.7222115703853,2
DRR-ECF,1184.5689112944463,2
DRR-ECF,1184.5689123963593,2
DRR-ECF,1185.0555443527621,2
DRR-ECF,1185.5421752072516,2
DRR-ECF,1186.3888776860954,2
DRR-ECF,1187.235579063026,2
DRR-ECF,1187.2355801649394,2
DRR-ECF,1187.7222104684722,2
DRR-ECF,1188.208839670092,2
DRR-ECF,1189.0555438018055,2
DRR-ECF,1189.902246831606,2
DRR-ECF,1189.902247933519,2
DRR-ECF,1190.3888765841823,2
DRR-ECF,1190.8755041329323,2
DRR-ECF,1191.7222099175156,2
DRR-ECF,1192.5689146001857,2
DRR-ECF,1192.568915702099,2
DRR-ECF,1193.0555426998924,2
DRR-ECF,1193.5421685957726,2
DRR-ECF,1194.3888760332256,2
DRR-ECF,1194.812228650039,2
DRR-ECF,1195.2355812668525,2
DRR-ECF,1196.1455619833723,2
DRR-ECF,1196.6005523416322,2
DRR-ECF,1197.0555426998924,2
DRR-ECF,1197.9338856749657,2
DRR-ECF,1198.3730571625024,2
DRR-ECF,1198.8122286500393,2
DRR-ECF,1199.7063904958356,2
DRR-ECF,1200.1534714187342,2
DRR-ECF,1200.6005523416325,2
DRR-ECF,1201.4868047520674,2
DRR-ECF,1201.9299309572848,2
DRR-ECF,1202.3730571625022,2
DRR-ECF,1203.2632642906183,2
DRR-ECF,1203.7083678546762,2
DRR-ECF,1204.1534714187342,2
DRR-ECF,1205.0417011880095,2
DRR-ECF,1205.4858160726471,2
DRR-ECF,1205.9299309572848,2
DRR-ECF,1206.8191494059804,2
DRR-ECF,1207.2637586303283,2
DRR-ECF,1207.7083678546762,2
DRR-ECF,1208.5970919636618,2
DRR-ECF,1209.0414540181544,2
DRR-ECF,1209.4858160726471,2
DRR-ECF,1210.3747873514876,2
DRR-ECF,1210.819272990908,2
DRR-ECF,1211.2637586303285,2
DRR-ECF,1212.1526063242413,2
DRR-ECF,1212.5970301711977,2
DRR-ECF,1213.0414540181544,2
DRR-ECF,1213.9303635045312,2
DRR-ECF,1214.3748182477198,2
DRR-ECF,1214.8192729909083,2
DRR-ECF,1215.708151581053,2
DRR-ECF,1216.1525908761255,2
DRR-ECF,1216.5970301711977,2
DRR-ECF,1217.4859242094587,2
DRR-ECF,1217.9303712285891,2
DRR-ECF,1218.3748182477195,2
DRR-ECF,1219.2637045619226,2
DRR-ECF,1219.708147719024,2
DRR-ECF,1220.1525908761255,2
DRR-ECF,1221.0414810523573,2
DRR-ECF,1221.4859261404733,2
DRR-ECF,1221.9303712285891,2
DRR-ECF,1222.8192594738066,2
DRR-ECF,1223.263703596415,2
DRR-ECF,1223.7081477190238,2
DRR-ECF,1224.5970369297486,2
DRR-ECF,1225.041481535111,2
DRR-ECF,1225.4859261404736,2
DRR-ECF,1226.3748148684442,2
DRR-ECF,1226.8192592324299,2
DRR-ECF,1227.2637035964153,2
DRR-ECF,1228.1525925657631,2
DRR-ECF,1228.597037050437,2
DRR-ECF,1229.0414815351107,2
DRR-ECF,1229.9303703837704,2
DRR-ECF,1230.3748148081002,2
DRR-ECF,1230.8192592324299,2
DRR-ECF,1231.7081481414334,2
DRR-ECF,1232.1525925959352,2
DRR-ECF,1232.597037050437,2
DRR-ECF,1233.4859259292684,2
DRR-ECF,1233.9303703686842,2
DRR-ECF,1234.3748148081002,2
DRR-ECF,1235.2637037020177,2
DRR-ECF,1235.7081481489765,2
DRR-ECF,1236.1525925959354,2
DRR-ECF,1237.0414814823098,2
DRR-ECF,1237.485925925497,2
DRR-ECF,1237.9303703686842,2
DRR-ECF,1238.8192592588302,2
DRR-ECF,1239.2637037039033,2
DRR-ECF,1239.7081481489765,2
DRR-ECF,1240.5970370372368,2
DRR-ECF,1241.0414814813669,2
DRR-ECF,1241.4859259254972,2
DRR-ECF,1242.3748148147001,2
DRR-ECF,1242.8192592593018,2
DRR-ECF,1242.8659259259684,1
DRR-ECF,1243.2637037039035,1
DRR-ECF,1243.9537037036675,1
DRR-ECF,1244.2459259254967,1
DRR-ECF,1245.2870370370008,1
DRR-ECF,1246.0359259266759,1
DRR-ECF,1246.4559259243174,1
DRR-ECF,1246.620370370334,1
DRR-ECF,1247.7070370346423,1
DRR-ECF,1249.0403703679756,1
DRR-ECF,1249.1225925909841,1
DRR-ECF,1250.3737037013088,1
DRR-ECF,1251.5425925886252,1
DRR-ECF,1251.707037034642,1
DRR-ECF,1252.7937036989501,1
DRR-ECF,1254.1270370322834,1
DRR-ECF,1254.209259255292,1
DRR-ECF,1255.4603703656167,1
DRR-ECF,1256.629259252933,1
DRR-ECF,1256.79370369895,1
DRR-ECF,1257.880370363258,1
DRR-ECF,1259.2137036965912,1
DRR-ECF,1259.2959259195998,1
DRR-ECF,1260.5470370299245,1
DRR-ECF,1261.7159259172408,1
DRR-ECF,1261.8803703632577,1
DRR-ECF,1262.9670370275658,1
DRR-ECF,1264.300370360899,1
DRR-ECF,1264.3825925839076,1
DRR-ECF,1265.6337036942323,1
DRR-ECF,1266.8025925815487,1
DRR-ECF,1266.9670370275655,1
DRR-ECF,1268.0537036918736,1
DRR-ECF,1269.2977777777776,1
DRR-ECF,1270.6311111111108,1
DRR-ECF,1271.964444444444,1
DRR-ECF,1273.2977777777774,1
DRR-ECF,1274.6311111111106,1
DRR-ECF,1275.9644444444439,1
DRR-ECF,1277.2977777777771,1
DRR-ECF,1278.6311111111104,1
DRR-ECF,1279.9644444444436,1
DRR-ECF,1281.297777777777,1
DRR-ECF,1282.6311111111102,1
DRR-ECF,1283.9644444444434,1
DRR-ECF,1285.2977777777767,1
DRR-ECF,1286.63111111111,1
DRR-ECF,1287.9644444444432,1
DRR-ECF,1289.2977777777764,1
DRR-ECF,1290.6311111111097,1
DRR-ECF,1291.964444444443,1
DRR-ECF,1293.2977777777762,1
DRR-ECF,1294.6311111111095,1
DRR-ECF,1295.9644444444427,1
DRR-ECF,1297.297777777776,1
DRR-ECF,1298.6311111111092,1
DRR-ECF,1299.9644444444425,1
DRR-ECF,1301.2977777777758,1
DRR-ECF,1302.631111111109,1
DRR-ECF,1303.9644444444423,1
DRR-ECF,1305.2977777777755,1
DRR-ECF,1306.6311111111088,1
DRR-ECF,1307.964444444442,1
DRR-ECF,1309.2977777777753,1
DRR-ECF,1310.6311111111086,1
DRR-ECF,1311.9644444444418,1
DRR-ECF,1313.297777777775,1
DRR-ECF,1314.6311111111083,1
DRR-ECF,1315.9644444444416,1
DRR-ECF,1317.2977777777749,1
DRR-ECF,1318.631111111108,1
DRR-ECF,1319.9644444444414,1
DRR-ECF,1321.2977777777746,1
DRR-ECF,1322.6311111111079,1
DRR-ECF,1323.9644444444411,1
DRR-ECF,1325.2977777777744,1
DRR-ECF,1326.6311111111077,1
DRR-ECF,1327.964444444441,1
DRR-ECF,1329.2977777777742,1
DRR-ECF,1330.6311111111074,1
DRR-ECF,1331.9644444444407,1
DRR-ECF,1333.297777777774,1
DRR-ECF,1334.6311111111072,1
DRR-ECF,1335.9644444444405,1
DRR-ECF,1337.2977777777737,1
DRR-ECF,1338.631111111107,1
DRR-ECF,1339.9644444444402,1
DRR-ECF,1341.2977777777735,1
DRR-ECF,1342.6311111111067,1
DRR-ECF,1343.96444444444,1
DRR-ECF,1344.2977777777776,0
DRR-ECF,2071.0,1
DRR-ECF,2072.3333333333335,1
DRR-ECF,2073.6666666666665,1
DRR-ECF,2075.0,1
DRR-ECF,2076.333333333333,1
DRR-ECF,2077.6666666666665,1
DRR-ECF,2078.9999999999995,1
DRR-ECF,2080.333333333333,1
DRR-ECF,2081.666666666666,1
DRR-ECF,2082.9999999999995,1
DRR-ECF,2084.3333333333326,1
DRR-ECF,2085.666666666666,1
DRR-ECF,2086.999999999999,1
DRR-ECF,2088.3333333333326,1
DRR-ECF,2089.6666666666656,1
DRR-ECF,2090.999999999999,1
DRR-ECF,2092.333333333332,1
DRR-ECF,2093.6666666666656,1
DRR-ECF,2094.9999999999986,1
DRR-ECF,2096.333333333332,1
DRR-ECF,2097.666666666665,1
DRR-ECF,2098.9999999999986,1
DRR-ECF,2100.3333333333317,1
DRR-ECF,2101.666666666665,1
DRR-ECF,2102.999999999998,1
DRR-ECF,2104.3333333333317,1
DRR-ECF,2105.6666666666647,1
DRR-ECF,2106.999999999998,1
DRR-ECF,2108.333333333331,1
DRR-ECF,2109.6666666666647,1
DRR-ECF,2110.9999999999977,1
DRR-ECF,2112.333333333331,1
DRR-ECF,2113.6666666666642,1
DRR-ECF,2114.9999999999977,1
DRR-ECF,2115.1155555555556,1
DRR-ECF,2116.2755555555523,1
DRR-ECF,2117.6088888888858,1
DRR-ECF,2118.9422222222192,1
DRR-ECF,2120.2755555555527,1
DRR-ECF,2121.608888888886,1
DRR-ECF,2122.9422222222197,1
DRR-ECF,2124.275555555553,1
DRR-ECF,2125.6088888888867,1
DRR-ECF,2126.94222222222,1
DRR-ECF,2128.2755555555536,1
DRR-ECF,2129.608888888887,1
DRR-ECF,2130.9422222222206,1
DRR-ECF,2132.275555555554,1
DRR-ECF,2133.6088888888876,1
DRR-ECF,2134.942222222221,1
DRR-ECF,2136.2755555555545,1
DRR-ECF,2137.608888888888,1
DRR-ECF,2138.9422222222215,1
DRR-ECF,2140.275555555555,1
DRR-ECF,2141.6088888888885,1
DRR-ECF,2142.942222222222,1
DRR-ECF,2144.2755555555555,1
DRR-ECF,2145.608888888889,1
DRR-ECF,2146.9422222222224,1
DRR-ECF,2148.275555555556,1
DRR-ECF,2149.6088888888894,1
DRR-ECF,2150.942222222223,1
DRR-ECF,2152.2755555555564,1
DRR-ECF,2153.60888888889,1
DRR-ECF,2154.9422222222233,1
DRR-ECF,2156.275555555557,1
DRR-ECF,2157.6088888888903,1
DRR-ECF,2158.942222222224,1
DRR-ECF,2160.2755555555573,1
DRR-ECF,2161.6088888888908,1
DRR-ECF,2162.9422222222242,1
DRR-ECF,2164.2755555555577,1
DRR-ECF,2165.608888888891,1
DRR-ECF,2166.9422222222247,1
DRR-ECF,2168.275555555558,1
DRR-ECF,2169.6088888888917,1
DRR-ECF,2170.942222222225,1
DRR-ECF,2172.2755555555586,1
DRR-ECF,2173.608888888892,1
DRR-ECF,2174.9422222222256,1
DRR-ECF,2176.275555555559,1
DRR-ECF,2177.6088888888926,1
DRR-ECF,2178.942222222226,1
DRR-ECF,2180.2755555555595,1
DRR-ECF,2181.608888888893,1
DRR-ECF,2182.9422222222265,1
DRR-ECF,2184.27555555556,1
DRR-ECF,2185.6088888888935,1
DRR-ECF,2186.942222222227,1
DRR-ECF,2188.2755555555605,1
DRR-ECF,2189.608888888894,1
DRR-ECF,2190.115555555556,0
DRR-ECF,2266.0,1
DRR-ECF,2267.3333333333335,1
DRR-ECF,2268.666666666667,1
DRR-ECF,2270.0000000000005,1
DRR-ECF,2271.0,2
DRR-ECF,2271.333333333334,2
DRR-ECF,2271.6666666666674,2
DRR-ECF,2272.0,3
DRR-ECF,2272.500000000001,3
DRR-ECF,2273.000000000002,3
DRR-ECF,2273.8333333333344,3
DRR-ECF,2274.6666666666665,3
DRR-ECF,2274.833333333334,3
DRR-ECF,2275.0000000000014,3
DRR-ECF,2275.6666666666665,3
DRR-ECF,2276.1666666666674,3
DRR-ECF,2276.3333333333317,3
DRR-ECF,2277.333333333333,3
DRR-ECF,2278.000000000001,3
DRR-ECF,2278.333333333335,3
DRR-ECF,2279.333333333334,3
DRR-ECF,2279.666666666666,3
DRR-ECF,2280.3333333333335,3
DRR-ECF,2280.9999999999995,3
DRR-ECF,2281.333333333334,3
DRR-ECF,2281.6666666666656,3
DRR-ECF,2282.666666666667,3
DRR-ECF,2283.3333333333344,3
DRR-ECF,2283.666666666669,3
DRR-ECF,2284.6666666666674,3
DRR-ECF,2284.999999999999,3
DRR-ECF,2285.6666666666665,3
DRR-ECF,2286.333333333332,3
DRR-ECF,2286.666666666667,3
DRR-ECF,2286.999999999998,3
DRR-ECF,2288.0000000000005,3
DRR-ECF,2288.6666666666683,3
DRR-ECF,2289.0000000000027,3
DRR-ECF,2290.0000000000014,3
DRR-ECF,2290.3333333333326,3
DRR-ECF,2291.0,3
DRR-ECF,2291.6666666666656,3
DRR-ECF,2292.0000000000005,3
DRR-ECF,2292.3333333333317,3
DRR-ECF,2293.333333333334,3
DRR-ECF,2294.000000000002,3
DRR-ECF,2294.3333333333358,3
DRR-ECF,2295.333333333335,3
DRR-ECF,2295.666666666666,3
DRR-ECF,2296.3333333333344,3
DRR-ECF,2296.999999999999,3
DRR-ECF,2297.3333333333335,3
DRR-ECF,2297.666666666664,3
DRR-ECF,2298.0,4
DRR-ECF,2298.4999999999986,4
DRR-ECF,2298.9999999999973,4
DRR-ECF,2299.1666666666674,4
DRR-ECF,2299.3333333333376,4
DRR-ECF,2300.5000000000005,4
DRR-ECF,2301.666666666664,4
DRR-ECF,2301.833333333334,4
DRR-ECF,2302.5833333333335,4
DRR-ECF,2303.333333333333,4
DRR-ECF,2303.7499999999964,4
DRR-ECF,2303.916666666667,4
DRR-ECF,2304.16666666666,4
DRR-ECF,2305.25,4
DRR-ECF,2305.291666666664,4
DRR-ECF,2305.3333333333276,4
DRR-ECF,2306.208333333334,4
DRR-ECF,2307.08333333334,4
DRR-ECF,2307.541666666667,4
DRR-ECF,2307.999999999994,4
DRR-ECF,2308.8750000000005,4
DRR-ECF,2309.729166666667,4
DRR-ECF,2310.187499999994,4
DRR-ECF,2310.5833333333335,4
DRR-ECF,2311.0625000000005,4
DRR-ECF,2311.5416666666674,4
DRR-ECF,2312.395833333334,4
DRR-ECF,2312.4479166666674,4
DRR-ECF,2312.500000000001,4
DRR-ECF,2313.781250000001,4
DRR-ECF,2314.635416666667,4
DRR-ECF,2315.0625000000005,4
DRR-ECF,2315.96875,4
DRR-ECF,2316.796875,4
DRR-ECF,2316.8489583333335,4
DRR-ECF,2317.625,4
DRR-ECF,2318.182291666667,4
DRR-ECF,2318.739583333334,4
DRR-ECF,2319.5156250000005,4
DRR-ECF,2319.6328125000005,4
DRR-ECF,2319.750000000001,4
DRR-ECF,2320.9661458333335,4
DRR-ECF,2321.7421875,4
DRR-ECF,2322.1822916666665,4
DRR-ECF,2323.0755208333335,4
DRR-ECF,2323.845052083333,4
DRR-ECF,2323.962239583334,4
DRR-ECF,2324.614583333333,4
DRR-ECF,2325.0,5
DRR-ECF,2325.102864583334,5
DRR-ECF,2325.2057291666674,5
DRR-ECF,2326.333333333335,5
DRR-ECF,2326.436197916667,5
DRR-ECF,2327.718098958334,5
DRR-ECF,2328.9485677083335,5
DRR-ECF,2329.000000000001,5
DRR-ECF,2330.281901041667,5
DRR-ECF,2330.321267361111,5
DRR-ECF,2330.424131944444,5
DRR-ECF,2330.9742838541674,5
DRR-ECF,2332.032541232639,5
DRR-ECF,2333.0907986111106,5
DRR-ECF,2333.3658745659723,5
DRR-ECF,2334.5616699218745,5
DRR-ECF,2334.836745876736,5
DRR-ECF,2335.757465277777,5
DRR-ECF,2336.0325412326392,5
DRR-ECF,2336.170079210069,5
DRR-ECF,2337.4346435546877,5
DRR-ECF,2338.699207899306,5
DRR-ECF,2338.767976888021,5
DRR-ECF,2339.0,6
DRR-ECF,2339.9509141710078,6
DRR-ECF,2340.0196831597227,6
DRR-ECF,2340.9018283420155,6
DRR-ECF,2341.053016493056,5
DRR-ECF,2341.3598415798615,5
DRR-ECF,2341.6666666666665,5
DRR-ECF,2342.6931749131945,5
DRR-ECF,2343.719683159723,5
DRR-ECF,2345.7726996527786,5
DRR-ECF,2346.386349826389,5
DRR-ECF,2347.719841579861,4
DRR-ECF,2348.3864290364586,4
DRR-ECF,2349.053016493056,4
DRR-ECF,2349.719762369792,4
DRR-ECF,2350.386508246528,4
DRR-ECF,2351.72,4
DRR-ECF,2353.053174913194,4
DRR-ECF,2355.0530957031256,4
DRR-ECF,2355.386468641493,4
DRR-ECF,2355.7198415798607,4
DRR-ECF,2356.7198019748266,4
DRR-ECF,2357.0531353081597,3
DRR-ECF,2357.719762369792,3
DRR-ECF,2359.719683159724,3
DRR-ECF,2360.386429036459,3
DRR-ECF,2361.0,4
DRR-ECF,2362.026547851563,4
DRR-ECF,2363.0530957031256,4
DRR-ECF,2363.359881184896,4
DRR-ECF,2363.666666666667,4
DRR-ECF,2364.2802376302075,4
DRR-ECF,2364.6932145182295,4
DRR-ECF,2365.5132739257815,4
DRR-ECF,2366.333333333333,4
DRR-ECF,2366.8466072591145,4
DRR-ECF,2367.9233036295573,4
DRR-ECF,2368.4365775553388,4
DRR-ECF,2369.0,4
DRR-ECF,2369.513273925781,4
DRR-ECF,2369.7699108886723,4
DRR-ECF,2370.97492574056,4
DRR-ECF,2372.1799405924476,4
DRR-ECF,2372.3082590738936,4
DRR-ECF,2373.577433166504,4
DRR-ECF,2373.7057516479495,4
DRR-ECF,2374.2657516479494,3
DRR-ECF,2374.846607259114,3
DRR-ECF,2374.9749257405606,3
DRR-ECF,2377.641592407227,3
DRR-ECF,2380.3082590738936,3
DRR-ECF,2382.97492574056,3
DRR-ECF,2385.6415924072267,3
DRR-ECF,2388.308259073893,3
DRR-ECF,2390.299203796387,3
DRR-ECF,2390.6370647684735,3
DRR-ECF,2390.97492574056,3
DRR-ECF,2391.970398101807,3
DRR-ECF,2392.517064768473,2
DRR-ECF,2392.9658704630538,2
DRR-ECF,2393.51253712972,2
DRR-ECF,2393.8503981018066,2
DRR-ECF,2394.0592037963856,2
DRR-ECF,2394.741467615763,2
DRR-ECF,2395.2149257405617,2
DRR-ECF,2396.0748009490962,2
DRR-ECF,2396.725870463052,2
DRR-ECF,2396.9346761576307,2
DRR-ECF,2397.3037314351404,2
DRR-ECF,2397.4639810180715,2
DRR-ECF,2398.6370647684735,2
DRR-ECF,2399.601342824297,2
DRR-ECF,2399.810148518876,2
DRR-ECF,2399.8659952545177,2
DRR-ECF,2401.1714052200305,2
DRR-ECF,2402.400335706074,2
DRR-ECF,2402.466498813629,2
DRR-ECF,2402.476815185543,2
DRR-ECF,2403.7998321469627,2
DRR-ECF,2405.094925740562,2
DRR-ECF,2405.1192037963856,2
DRR-ECF,2405.1228491083825,2
DRR-ECF,2406.4525371297186,2
DRR-ECF,2407.7719087791415,2
DRR-ECF,2407.7807122770955,2
DRR-ECF,2407.7822251510547,2
DRR-ECF,2409.114045610429,2
DRR-ECF,2410.4422207578054,2
DRR-ECF,2410.4455562877633,2
DRR-ECF,2410.4458660698033,2
DRR-ECF,2411.778889621097,2
DRR-ECF,2413.0475705242097,2
DRR-ECF,2413.110400298431,2
DRR-ECF,2413.1114665174505,2
DRR-ECF,2413.1119131723904,2
DRR-ECF,2414.444799850784,2
DRR-ECF,2415.110933407941,2
DRR-ECF,2415.777066965098,2
DRR-ECF,2416.4442667412745,2
DRR-ECF,2416.7778666293625,2
DRR-ECF,2417.1114665174505,2
DRR-ECF,2418.1111999626955,2
DRR-ECF,2418.6110666853183,2
DRR-ECF,2419.1109334079415,2
DRR-ECF,2419.944400018652,2
DRR-ECF,2420.361133324007,2
DRR-ECF,2420.7778666293625,2
DRR-ECF,2421.6944666573404,2
DRR-ECF,2422.1527666713296,2
DRR-ECF,2422.6110666853187,2
DRR-ECF,2423.4861000046626,2
DRR-ECF,2423.923616664335,2
DRR-ECF,2424.3611333240074,2
DRR-ECF,2425.2569499976685,2
DRR-ECF,2425.7048583344986,2
DRR-ECF,2426.152766671329,2
DRR-ECF,2427.038191667832,2
DRR-ECF,2427.4809041660837,2
DRR-ECF,2427.9236166643354,2
DRR-ECF,2428.814237499417,2
DRR-ECF,2429.2595479169577,2
DRR-ECF,2429.704858334499,2
DRR-ECF,2430.592881250291,2
DRR-ECF,2431.036892708187,2
DRR-ECF,2431.4809041660837,2
DRR-ECF,2432.3702260415207,2
DRR-ECF,2432.8148869792394,2
DRR-ECF,2433.259547916958,2
DRR-ECF,2434.1482203125724,2
DRR-ECF,2434.59255651038,2
DRR-ECF,2435.0368927081877,2
DRR-ECF,2435.9258898437133,2
DRR-ECF,2436.3703884114766,2
DRR-ECF,2436.8148869792394,2
DRR-ECF,2437.70372174481,2
DRR-ECF,2438.1481391275947,2
DRR-ECF,2438.5925565103794,2
DRR-ECF,2439.4814724609278,2
DRR-ECF,2439.925930436202,2
DRR-ECF,2440.370388411477,2
DRR-ECF,2441.2592637695357,2
DRR-ECF,2441.703701448565,2
DRR-ECF,2442.1481391275947,2
DRR-ECF,2443.0370347818985,2
DRR-ECF,2443.4814826090505,2
DRR-ECF,2443.9259304362026,2
DRR-ECF,2444.8148159423836,2
DRR-ECF,2445.2592586954743,2
DRR-ECF,2445.7037014485654,2
DRR-ECF,2446.5925920288078,2
DRR-ECF,2447.037037318929,2
DRR-ECF,2447.4814826090505,2
DRR-ECF,2448.3703706522624,2
DRR-ECF,2448.8148146738686,2
DRR-ECF,2449.2592586954747,2
DRR-ECF,2450.1481480072016,2
DRR-ECF,2450.5925926630653,2
DRR-ECF,2451.0370373189294,2
DRR-ECF,2451.9259259963987,2
DRR-ECF,2452.0,3
DRR-ECF,2452.333333333333,3
DRR-ECF,2452.666666666666,3
DRR-ECF,2453.6666666666665,3
DRR-ECF,2454.1666666666665,3
DRR-ECF,2454.6666666666665,3
DRR-ECF,2455.4999999999995,3
DRR-ECF,2455.9166666666665,3
DRR-ECF,2456.3333333333335,3
DRR-ECF,2457.0,4
DRR-ECF,2457.583333333333,4
DRR-ECF,2458.0,5
DRR-ECF,2459.1666666666665,5
DRR-ECF,2459.4166666666665,5
DRR-ECF,2459.5766666666664,4
DRR-ECF,2459.6666666666665,4
DRR-ECF,2460.0,5
DRR-ECF,2460.9166666666665,5
DRR-ECF,2461.8333333333335,5
DRR-ECF,2462.666666666667,5
DRR-ECF,2464.493333333333,5
DRR-ECF,2467.1599999999994,5
DRR-ECF,2472.2799999999997,4
DRR-ECF,2473.6133333333332,4
DRR-ECF,2474.94,3
DRR-ECF,2474.9466666666667,3
DRR-ECF,2479.7133333333336,2
DRR-ECF,2482.3799999999997,2
DRR-ECF,2484.46,1
DRR-ECF,2485.7933333333335,1
DRR-ECF,2487.126666666667,1
DRR-ECF,2488.4600000000005,1
DRR-ECF,2489.7933333333335,1
DRR-ECF,2491.126666666667,1
DRR-ECF,2492.46,1
DRR-ECF,2493.7933333333335,1
DRR-ECF,2495.1266666666666,1
DRR-ECF,2496.46,1
DRR-ECF,2497.793333333333,1
DRR-ECF,2499.1266666666666,1
DRR-ECF,2500.4599999999996,1
DRR-ECF,2501.793333333333,1
DRR-ECF,2503.126666666666,1
DRR-ECF,2504.4599999999996,1
DRR-ECF,2505.7933333333326,1
DRR-ECF,2507.126666666666,1
DRR-ECF,2508.459999999999,1
DRR-ECF,2509.7933333333326,1
DRR-ECF,2511.1266666666656,1
DRR-ECF,2512.459999999999,1
DRR-ECF,2513.793333333332,1
DRR-ECF,2515.1266666666656,1
DRR-ECF,2516.4599999999987,1
DRR-ECF,2517.793333333332,1
DRR-ECF,2519.126666666665,1
DRR-ECF,2520.4599999999987,1
DRR-ECF,2521.7933333333317,1
DRR-ECF,2523.126666666665,1
DRR-ECF,2524.459999999998,1
DRR-ECF,2525.7933333333317,1
DRR-ECF,2527.1266666666647,1
DRR-ECF,2528.459999999998,1
DRR-ECF,2529.7933333333312,1
DRR-ECF,2531.1266666666647,1
DRR-ECF,2532.4599999999978,1
DRR-ECF,2533.7933333333312,1
DRR-ECF,2535.1266666666643,1
DRR-ECF,2536.4599999999978,1
DRR-ECF,2537.793333333331,1
DRR-ECF,2539.1266666666643,1
DRR-ECF,2540.4599999999973,1
DRR-ECF,2541.793333333331,1
DRR-ECF,2543.126666666664,1
DRR-ECF,2544.4599999999973,1
DRR-ECF,2545.7933333333303,1
DRR-ECF,2547.126666666664,1
DRR-ECF,2548.459999999997,1
DRR-ECF,2549.7933333333303,1
DRR-ECF,2551.1266666666634,1
DRR-ECF,2552.459999999997,1
DRR-ECF,2553.79333333333,1
DRR-ECF,2555.1266666666634,1
DRR-ECF,2556.4599999999964,1
DRR-ECF,2557.79333333333,1
DRR-ECF,2559.126666666663,1
DRR-ECF,2560.4599999999964,1
DRR-ECF,2561.7933333333294,1
DRR-ECF,2563.126666666663,1
DRR-ECF,2564.459999999996,1
DRR-ECF,2565.7933333333294,1
DRR-ECF,2567.1266666666625,1
DRR-ECF,2568.459999999996,1
DRR-ECF,2569.793333333329,1
DRR-ECF,2571.1266666666625,1
DRR-ECF,2572.4599999999955,1
DRR-ECF,2573.793333333329,1
DRR-ECF,2575.126666666662,1
DRR-ECF,2576.4599999999955,1
DRR-ECF,2577.7933333333285,1
DRR-ECF,2579.126666666662,1
DRR-ECF,2580.459999999995,1
DRR-ECF,2581.7933333333285,1
DRR-ECF,2583.1266666666615,1
DRR-ECF,2584.459999999995,1
DRR-ECF,2585.793333333328,1
DRR-ECF,2587.1266666666615,1
DRR-ECF,2588.4599999999946,1
DRR-ECF,2589.793333333328,1
DRR-ECF,2591.126666666661,1
DRR-ECF,2592.4599999999946,1
DRR-ECF,2593.7933333333276,1
DRR-ECF,2595.126666666661,1
DRR-ECF,2596.459999999994,1
DRR-ECF,2597.7933333333276,1
DRR-ECF,2599.1266666666606,1
DRR-ECF,2600.459999999994,1
DRR-ECF,2601.793333333327,1
DRR-ECF,2603.1266666666606,1
DRR-ECF,2604.4599999999937,1
DRR-ECF,2605.793333333327,1
DRR-ECF,2607.12666666666,1
DRR-ECF,2608.4599999999937,1
DRR-ECF,2609.7933333333267,1
DRR-ECF,2611.12666666666,1
DRR-ECF,2612.459999999993,1
DRR-ECF,2613.7933333333267,1
DRR-ECF,2615.1266666666597,1
DRR-ECF,2616.459999999993,1
DRR-ECF,2617.7933333333262,1
DRR-ECF,2619.1266666666597,1
DRR-ECF,2620.4599999999928,1
DRR-ECF,2621.7933333333262,1
DRR-ECF,2623.1266666666593,1
DRR-ECF,2624.4599999999928,1
DRR-ECF,2625.793333333326,1
DRR-ECF,2627.1266666666593,1
DRR-ECF,2628.4599999999923,1
DRR-ECF,2629.793333333326,1
DRR-ECF,2631.126666666659,1
DRR-ECF,2632.4599999999923,1
DRR-ECF,2633.7933333333253,1
DRR-ECF,2635.126666666659,1
DRR-ECF,2636.459999999992,1
DRR-ECF,2637.7933333333253,1
DRR-ECF,2639.1266666666584,1
DRR-ECF,2640.459999999992,1
DRR-ECF,2641.793333333325,1
DRR-ECF,2643.1266666666584,1
DRR-ECF,2644.4599999999914,1
DRR-ECF,2645.793333333325,1
DRR-ECF,2647.126666666658,1
DRR-ECF,2648.4599999999914,1
DRR-ECF,2649.7933333333244,1
DRR-ECF,2651.126666666658,1
DRR-ECF,2652.459999999991,1
DRR-ECF,2653.7933333333244,1
DRR-ECF,2655.1266666666575,1
DRR-ECF,2656.459999999991,1
DRR-ECF,2657.793333333324,1
DRR-ECF,2659.1266666666575,1
DRR-ECF,2660.4599999999905,1
DRR-ECF,2661.793333333324,1
DRR-ECF,2663.126666666657,1
DRR-ECF,2664.4599999999905,1
DRR-ECF,2665.7933333333235,1
DRR-ECF,2667.126666666657,1
DRR-ECF,2668.45999999999,1
DRR-ECF,2669.7933333333235,1
DRR-ECF,2671.1266666666565,1
DRR-ECF,2672.45999999999,1
DRR-ECF,2673.793333333323,1
DRR-ECF,2675.1266666666565,1
DRR-ECF,2676.4599999999896,1
DRR-ECF,2677.793333333323,1
DRR-ECF,2679.126666666656,1
DRR-ECF,2680.4599999999896,1
DRR-ECF,2681.7933333333226,1
DRR-ECF,2683.126666666656,1
DRR-ECF,2684.459999999989,1
DRR-ECF,2685.7933333333226,1
DRR-ECF,2687.1266666666556,1
DRR-ECF,2688.459999999989,1
DRR-ECF,2689.793333333322,1
DRR-ECF,2691.1266666666556,1
DRR-ECF,2692.4599999999887,1
DRR-ECF,2693.793333333322,1
DRR-ECF,2695.126666666655,1
DRR-ECF,2696.4599999999887,1
DRR-ECF,2697.7933333333217,1
DRR-ECF,2699.126666666655,1
DRR-ECF,2700.459999999988,1
DRR-ECF,2701.7933333333217,1
DRR-ECF,2703.1266666666547,1
DRR-ECF,2704.459999999988,1
DRR-ECF,2705.7933333333212,1
DRR-ECF,2707.1266666666547,1
DRR-ECF,2708.4599999999878,1
DRR-ECF,2709.7933333333212,1
DRR-ECF,2711.1266666666543,1
DRR-ECF,2712.4599999999878,1
DRR-ECF,2713.793333333321,1
DRR-ECF,2715.1266666666543,1
DRR-ECF,2716.4599999999873,1
DRR-ECF,2717.793333333321,1
DRR-ECF,2719.126666666654,1
DRR-ECF,2720.4599999999873,1
DRR-ECF,2721.7933333333203,1
DRR-ECF,2723.126666666654,1
DRR-ECF,2724.459999999987,1
DRR-ECF,2725.7933333333203,1
DRR-ECF,2727.1266666666534,1
DRR-ECF,2728.459999999987,1
DRR-ECF,2729.79333333332,1
DRR-ECF,2731.1266666666534,1
DRR-ECF,2732.4599999999864,1
DRR-ECF,2733.79333333332,1
DRR-ECF,2735.126666666653,1
DRR-ECF,2736.4599999999864,1
DRR-ECF,2737.7933333333194,1
DRR-ECF,2739.126666666653,1
DRR-ECF,2740.459999999986,1
DRR-ECF,2741.7933333333194,1
DRR-ECF,2743.1266666666525,1
DRR-ECF,2744.459999999986,1
DRR-ECF,2745.793333333319,1
DRR-ECF,2747.1266666666525,1
DRR-ECF,2748.4599999999855,1
DRR-ECF,2749.793333333319,1
DRR-ECF,2751.126666666652,1
DRR-ECF,2752.4599999999855,1
DRR-ECF,2753.7933333333185,1
DRR-ECF,2755.126666666652,1
DRR-ECF,2756.459999999985,1
DRR-ECF,2757.7933333333185,1
DRR-ECF,2759.1266666666515,1
DRR-ECF,2760.459999999985,1
DRR-ECF,2761.793333333318,1
DRR-ECF,2763.1266666666515,1
DRR-ECF,2764.4599999999846,1
DRR-ECF,2765.793333333318,1
DRR-ECF,2767.126666666651,1
DRR-ECF,2768.4599999999846,1
DRR-ECF,2769.7933333333176,1
DRR-ECF,2771.126666666651,1
DRR-ECF,2772.459999999984,1
DRR-ECF,2773.7933333333176,1
DRR-ECF,2775.1266666666506,1
DRR-ECF,2776.459999999984,1
DRR-ECF,2777.793333333317,1
DRR-ECF,2779.1266666666506,1
DRR-ECF,2780.4599999999837,1
DRR-ECF,2781.793333333317,1
DRR-ECF,2783.12666666665,1
DRR-ECF,2784.4599999999837,1
DRR-ECF,2785.7933333333167,1
DRR-ECF,2787.12666666665,1
DRR-ECF,2788.459999999983,1
DRR-ECF,2789.7933333333167,1
DRR-ECF,2791.1266666666497,1
DRR-ECF,2792.459999999983,1
DRR-ECF,2793.7933333333162,1
DRR-ECF,2795.1266666666497,1
DRR-ECF,2796.4599999999828,1
DRR-ECF,2797.7933333333162,1
DRR-ECF,2799.1266666666493,1
DRR-ECF,2800.4599999999828,1
DRR-ECF,2801.793333333316,1
DRR-ECF,2803.1266666666493,1
DRR-ECF,2804.4599999999823,1
DRR-ECF,2805.793333333316,1
DRR-ECF,2807.126666666649,1
DRR-ECF,2808.4599999999823,1
DRR-ECF,2809.7933333333153,1
DRR-ECF,2811.126666666649,1
DRR-ECF,2812.459999999982,1
DRR-ECF,2813.7933333333153,1
DRR-ECF,2815.1266666666484,1
DRR-ECF,2816.459999999982,1
DRR-ECF,2817.793333333315,1
DRR-ECF,2819.1266666666484,1
DRR-ECF,2820.4599999999814,1
DRR-ECF,2821.793333333315,1
DRR-ECF,2823.126666666648,1
DRR-ECF,2824.4599999999814,1
DRR-ECF,2825.7933333333144,1
DRR-ECF,2827.126666666648,1
DRR-ECF,2828.459999999981,1
DRR-ECF,2829.7933333333144,1
DRR-ECF,2831.1266666666475,1
DRR-ECF,2832.459999999981,1
DRR-ECF,2833.793333333314,1
DRR-ECF,2835.1266666666475,1
DRR-ECF,2836.4599999999805,1
DRR-ECF,2837.793333333314,1
DRR-ECF,2839.126666666647,1
DRR-ECF,2840.4599999999805,1
DRR-ECF,2841.7933333333135,1
DRR-ECF,2843.126666666647,1
DRR-ECF,2844.45999999998,1
DRR-ECF,2845.7933333333135,1
DRR-ECF,2847.1266666666465,1
DRR-ECF,2848.45999999998,1
DRR-ECF,2849.793333333313,1
DRR-ECF,2851.1266666666465,1
DRR-ECF,2852.4599999999796,1
DRR-ECF,2853.793333333313,1
DRR-ECF,2855.126666666646,1
DRR-ECF,2856.4599999999796,1
DRR-ECF,2857.7933333333126,1
DRR-ECF,2859.126666666646,1
DRR-ECF,2860.459999999979,1
DRR-ECF,2861.7933333333126,1
DRR-ECF,2863.1266666666456,1
DRR-ECF,2864.459999999979,1
DRR-ECF,2865.793333333312,1
DRR-ECF,2867.1266666666456,1
DRR-ECF,2868.4599999999787,1
DRR-ECF,2869.793333333312,1
DRR-ECF,2871.126666666645,1
DRR-ECF,2872.4599999999787,1
DRR-ECF,2873.7933333333117,1
DRR-ECF,2875.126666666645,1
DRR-ECF,2876.459999999978,1
DRR-ECF,2877.7933333333117,1
DRR-ECF,2879.1266666666447,1
DRR-ECF,2880.459999999978,1
DRR-ECF,2881.7933333333112,1
DRR-ECF,2883.1266666666447,1
DRR-ECF,2884.4599999999778,1
DRR-ECF,2885.7933333333112,1
DRR-ECF,2887.1266666666443,1
DRR-ECF,2888.4599999999778,1
DRR-ECF,2889.793333333311,1
DRR-ECF,2891.1266666666443,1
DRR-ECF,2892.4599999999773,1
DRR-ECF,2893.793333333311,1
DRR-ECF,2895.126666666644,1
DRR-ECF,2896.4599999999773,1
DRR-ECF,2897.7933333333103,1
DRR-ECF,2899.126666666644,1
DRR-ECF,2900.459999999977,1
DRR-ECF,2901.7933333333103,1
DRR-ECF,2903.1266666666434,1
DRR-ECF,2904.459999999977,1
DRR-ECF,2905.79333333331,1
DRR-ECF,2907.1266666666434,1
DRR-ECF,2908.4599999999764,1
DRR-ECF,2909.79333333331,1
DRR-ECF,2911.126666666643,1
DRR-ECF,2912.4599999999764,1
DRR-ECF,2913.7933333333094,1
DRR-ECF,2915.126666666643,1
DRR-ECF,2916.459999999976,1
DRR-ECF,2917.7933333333094,1
DRR-ECF,2919.1266666666424,1
DRR-ECF,2920.459999999976,1
DRR-ECF,2921.793333333309,1
DRR-ECF,2923.1266666666424,1
DRR-ECF,2924.4599999999755,1
DRR-ECF,2925.793333333309,1
DRR-ECF,2927.126666666642,1
DRR-ECF,2928.4599999999755,1
DRR-ECF,2929.7933333333085,1
DRR-ECF,2931.126666666642,1
DRR-ECF,2932.459999999975,1
DRR-ECF,2933.7933333333085,1
DRR-ECF,2935.1266666666415,1
DRR-ECF,2936.459999999975,1
DRR-ECF,2937.793333333308,1
DRR-ECF,2939.1266666666415,1
DRR-ECF,2940.4599999999746,1
DRR-ECF,2941.793333333308,1
DRR-ECF,2943.126666666641,1
DRR-ECF,2944.4599999999746,1
DRR-ECF,2945.7933333333076,1
DRR-ECF,2947.126666666641,1
DRR-ECF,2948.459999999974,1
DRR-ECF,2949.7933333333076,1
DRR-ECF,2951.1266666666406,1
DRR-ECF,2952.459999999974,1
DRR-ECF,2953.793333333307,1
DRR-ECF,2955.1266666666406,1
DRR-ECF,2956.4599999999737,1
DRR-ECF,2957.793333333307,1
DRR-ECF,2959.12666666664,1
DRR-ECF,2960.4599999999737,1
DRR-ECF,2961.7933333333067,1
DRR-ECF,2963.12666666664,1
DRR-ECF,2964.459999999973,1
DRR-ECF,2965.7933333333067,1
DRR-ECF,2967.1266666666397,1
DRR-ECF,2968.459999999973,1
DRR-ECF,2969.7933333333062,1
DRR-ECF,2971.1266666666397,1
DRR-ECF,2972.4599999999728,1
DRR-ECF,2973.7933333333062,1
DRR-ECF,2975.1266666666393,1
DRR-ECF,2976.4599999999728,1
DRR-ECF,2977.793333333306,1
DRR-ECF,2979.1266666666393,1
DRR-ECF,2980.4599999999723,1
DRR-ECF,2981.793333333306,1
DRR-ECF,2983.126666666639,1
DRR-ECF,2984.4599999999723,1
DRR-ECF,2985.7933333333053,1
DRR-ECF,2987.126666666639,1
DRR-ECF,2988.459999999972,1
DRR-ECF,2989.7933333333053,1
DRR-ECF,2991.1266666666384,1
DRR-ECF,2992.459999999972,1
DRR-ECF,2993.793333333305,1
DRR-ECF,2995.1266666666384,1
DRR-ECF,2996.4599999999714,1
DRR-ECF,2997.793333333305,1
DRR-ECF,2999.126666666638,1
DRR-ECF,3000.4599999999714,1
DRR-ECF,3001.7933333333044,1
DRR-ECF,3003.126666666638,1
DRR-ECF,3004.459999999971,1
DRR-ECF,3005.7933333333044,1
DRR-ECF,3007.1266666666374,1
DRR-ECF,3008.459999999971,1
DRR-ECF,3009.793333333304,1
DRR-ECF,3011.1266666666374,1
DRR-ECF,3012.4599999999705,1
DRR-ECF,3013.793333333304,1
DRR-ECF,3015.126666666637,1
DRR-ECF,3016.4599999999705,1
DRR-ECF,3017.7933333333035,1
DRR-ECF,3019.126666666637,1
DRR-ECF,3020.45999999997,1
DRR-ECF,3021.7933333333035,1
DRR-ECF,3023.1266666666365,1
DRR-ECF,3024.45999999997,1
DRR-ECF,3025.793333333303,1
DRR-ECF,3027.1266666666365,1
DRR-ECF,3028.4599999999696,1
DRR-ECF,3029.793333333303,1
DRR-ECF,3031.126666666636,1
DRR-ECF,3032.4599999999696,1
DRR-ECF,3033.7933333333026,1
DRR-ECF,3035.126666666636,1
DRR-ECF,3036.459999999969,1
DRR-ECF,3037.7933333333026,1
DRR-ECF,3039.1266666666356,1
DRR-ECF,3040.459999999969,1
DRR-ECF,3041.793333333302,1
DRR-ECF,3043.1266666666356,1
DRR-ECF,3044.4599999999687,1
DRR-ECF,3045.793333333302,1
DRR-ECF,3047.126666666635,1
DRR-ECF,3048.4599999999687,1
DRR-ECF,3049.7933333333017,1
DRR-ECF,3051.126666666635,1
DRR-ECF,3052.459999999968,1
DRR-ECF,3053.7933333333017,1
DRR-ECF,3055.1266666666347,1
DRR-ECF,3056.459999999968,1
DRR-ECF,3057.7933333333012,1
DRR-ECF,3059.1266666666347,1
DRR-ECF,3060.4599999999677,1
DRR-ECF,3061.7933333333012,1
DRR-ECF,3063.1266666666343,1
DRR-ECF,3064.4599999999677,1
DRR-ECF,3065.793333333301,1
DRR-ECF,3067.1266666666343,1
DRR-ECF,3068.4599999999673,1
DRR-ECF,3069.793333333301,1
DRR-ECF,3071.126666666634,1
DRR-ECF,3072.4599999999673,1
DRR-ECF,3073.7933333333003,1
DRR-ECF,3075.126666666634,1
DRR-ECF,3076.459999999967,1
DRR-ECF,3077.7933333333003,1
DRR-ECF,3079.1266666666334,1
DRR-ECF,3080.459999999967,1
DRR-ECF,3081.7933333333,1
DRR-ECF,3083.1266666666334,1
DRR-ECF,3084.4599999999664,1
DRR-ECF,3085.7933333333,1
DRR-ECF,3087.126666666633,1
DRR-ECF,3088.4599999999664,1
DRR-ECF,3089.7933333332994,1
DRR-ECF,3091.126666666633,1
DRR-ECF,3092.0822222222223,1
DRR-ECF,3093.415555555556,1
DRR-ECF,3094.7488888888893,1
DRR-ECF,3096.0822222222228,1
DRR-ECF,3097.4155555555562,1
DRR-ECF,3098.7488888888897,1
DRR-ECF,3100.082222222223,1
DRR-ECF,3101.4155555555567,1
DRR-ECF,3102.74888888889,1
DRR-ECF,3104.0822222222237,1
DRR-ECF,3105.415555555557,1
DRR-ECF,3106.7488888888906,1
DRR-ECF,3108.082222222224,1
DRR-ECF,3109.4155555555576,1
DRR-ECF,3110.748888888891,1
DRR-ECF,3112.0822222222246,1
DRR-ECF,3113.415555555558,1
DRR-ECF,3114.7488888888915,1
DRR-ECF,3116.082222222225,1
DRR-ECF,3117.4155555555585,1
DRR-ECF,3118.748888888892,1
DRR-ECF,3120.0822222222255,1
DRR-ECF,3121.415555555559,1
DRR-ECF,3122.7488888888925,1
DRR-ECF,3124.082222222226,1
DRR-ECF,3125.4155555555594,1
DRR-ECF,3126.748888888893,1
DRR-ECF,3128.0822222222264,1
DRR-ECF,3129.41555555556,1
DRR-ECF,3130.7488888888934,1
DRR-ECF,3132.082222222227,1
DRR-ECF,3133.4155555555603,1
DRR-ECF,3134.748888888894,1
DRR-ECF,3136.0822222222273,1
DRR-ECF,3137.415555555561,1
DRR-ECF,3138.7488888888943,1
DRR-ECF,3140.0822222222278,1
DRR-ECF,3141.4155555555612,1
DRR-ECF,3142.7488888888947,1
DRR-ECF,3144.082222222228,1
DRR-ECF,3145.4155555555617,1
DRR-ECF,3146.748888888895,1
DRR-ECF,3148.0822222222287,1
DRR-ECF,3149.415555555562,1
DRR-ECF,3150.7488888888956,1
DRR-ECF,3152.082222222229,1
DRR-ECF,3153.4155555555626,1
DRR-ECF,3154.748888888896,1
DRR-ECF,3156.0822222222296,1
DRR-ECF,3157.415555555563,1
DRR-ECF,3158.7488888888965,1
DRR-ECF,3160.08222222223,1
DRR-ECF,3161.4155555555635,1
DRR-ECF,3162.748888888897,1
DRR-ECF,3164.0822222222305,1
DRR-ECF,3165.415555555564,1
DRR-ECF,3166.7488888888975,1
DRR-ECF,3167.0822222222223,0
DRR-ECF,9719.0,2
DRR-ECF,9720.333333333334,2
DRR-ECF,9721.666666666668,2
DRR-ECF,9723.0,2
DRR-ECF,9724.333333333332,2
DRR-ECF,9725.666666666666,2
DRR-ECF,9727.0,2
DRR-ECF,9728.333333333334,2
DRR-ECF,9729.666666666668,2
DRR-ECF,9731.0,2
DRR-ECF,9732.333333333332,2
DRR-ECF,9733.666666666666,2
DRR-ECF,9735.0,2
DRR-ECF,9736.333333333334,2
DRR-ECF,9737.666666666668,2
DRR-ECF,9739.0,2
DRR-ECF,9740.333333333332,2
DRR-ECF,9741.666666666666,2
DRR-ECF,9743.0,2
DRR-ECF,9744.333333333334,2
DRR-ECF,9745.666666666668,2
DRR-ECF,9746.0,5
DRR-ECF,9746.873333333333,4
DRR-ECF,9747.77,4
DRR-ECF,9748.666666666666,4
DRR-ECF,9749.539999999999,4
DRR-ECF,9750.103333333334,4
DRR-ECF,9752.77,4
DRR-ECF,9754.103333333334,4
DRR-ECF,9755.436666666668,4
DRR-ECF,9756.103333333334,4
DRR-ECF,9756.77,4
DRR-ECF,9758.103333333336,4
DRR-ECF,9759.936666666668,3
DRR-ECF,9761.396666666667,2
DRR-ECF,9762.0,2
DRR-ECF,9762.603333333334,2
DRR-ECF,9764.063333333335,2
DRR-ECF,9769.426666666666,1
DRR-ECF,9770.76,1
DRR-ECF,9772.093333333334,1
DRR-ECF,9773.426666666668,1
DRR-ECF,9774.76,1
DRR-ECF,9776.093333333334,1
DRR-ECF,9777.426666666666,1
DRR-ECF,9778.76,1
DRR-ECF,9780.093333333332,1
DRR-ECF,9781.426666666666,1
DRR-ECF,9782.759999999998,1
DRR-ECF,9784.093333333332,1
DRR-ECF,9785.426666666664,1
DRR-ECF,9786.759999999998,1
DRR-ECF,9788.09333333333,1
DRR-ECF,9789.426666666664,1
DRR-ECF,9790.759999999997,1
DRR-ECF,9792.09333333333,1
DRR-ECF,9793.426666666663,1
DRR-ECF,9794.759999999997,1
DRR-ECF,9796.093333333329,1
DRR-ECF,9797.426666666663,1
DRR-ECF,9798.759999999995,1
DRR-ECF,9800.093333333329,1
DRR-ECF,9801.42666666666,1
DRR-ECF,9802.759999999995,1
DRR-ECF,9804.093333333327,1
DRR-ECF,9805.42666666666,1
DRR-ECF,9806.759999999993,1
DRR-ECF,9808.093333333327,1
DRR-ECF,9809.426666666659,1
DRR-ECF,9810.759999999993,1
DRR-ECF,9812.093333333325,1
DRR-ECF,9813.426666666659,1
DRR-ECF,9814.759999999991,1
DRR-ECF,9816.093333333325,1
DRR-ECF,9817.426666666657,1
DRR-ECF,9818.759999999991,1
DRR-ECF,9820.093333333323,1
DRR-ECF,9821.426666666657,1
DRR-ECF,9822.75999999999,1
DRR-ECF,9824.093333333323,1
DRR-ECF,9825.426666666655,1
DRR-ECF,9826.75999999999,1
DRR-ECF,9828.093333333321,1
DRR-ECF,9829.426666666655,1
DRR-ECF,9830.759999999987,1
DRR-ECF,9832.093333333321,1
DRR-ECF,9833.426666666654,1
DRR-ECF,9834.759999999987,1
DRR-ECF,9836.09333333332,1
DRR-ECF,9837.426666666654,1
DRR-ECF,9838.759999999986,1
DRR-ECF,9840.09333333332,1
DRR-ECF,9841.426666666652,1
DRR-ECF,9842.759999999986,1
DRR-ECF,9844.093333333318,1
DRR-ECF,9845.426666666652,1
DRR-ECF,9846.759999999984,1
DRR-ECF,9848.093333333318,1
DRR-ECF,9849.42666666665,1
DRR-ECF,9850.759999999984,1
DRR-ECF,9852.093333333316,1
DRR-ECF,9853.42666666665,1
DRR-ECF,9854.759999999982,1
DRR-ECF,9856.093333333316,1
DRR-ECF,9857.426666666648,1
DRR-ECF,9858.759999999982,1
DRR-ECF,9860.093333333314,1
DRR-ECF,9861.0,2
DRR-ECF,9862.333333333334,2
DRR-ECF,9862.973333333304,2
DRR-ECF,9863.613333333276,2
DRR-ECF,9864.0,4
DRR-ECF,9864.5,4
DRR-ECF,9865.000000000002,4
DRR-ECF,9866.13999999997,4
DRR-ECF,9866.90333333332,4
DRR-ECF,9867.666666666668,4
DRR-ECF,9868.236666666653,4
DRR-ECF,9868.806666666636,4
DRR-ECF,9869.069999999987,4
DRR-ECF,9869.333333333336,4
DRR-ECF,9870.403333333321,4
DRR-ECF,9870.438333333313,4
DRR-ECF,9870.473333333306,4
DRR-ECF,9871.201666666662,4
DRR-ECF,9871.930000000018,4
DRR-ECF,9872.271666666646,4
DRR-ECF,9872.613333333273,4
DRR-ECF,9873.364999999978,3
DRR-ECF,9874.287499999966,3
DRR-ECF,9874.892499999944,3
DRR-ECF,9875.209999999954,3
DRR-ECF,9875.884166666649,3
DRR-ECF,9876.294999999995,3
DRR-ECF,9876.558333333345,3
DRR-ECF,9877.628333333327,3
DRR-ECF,9878.0,4
DRR-ECF,9878.287499999966,4
DRR-ECF,9878.57499999993,4
DRR-ECF,9879.620833333298,4
DRR-ECF,9880.233333333304,4
DRR-ECF,9880.666666666668,4
DRR-ECF,9881.566666666638,4
DRR-ECF,9882.466666666607,4
DRR-ECF,9882.612500000007,4
DRR-ECF,9882.758333333406,4
DRR-ECF,9882.899999999972,4
DRR-ECF,9883.041666666537,4
DRR-ECF,9884.233333333304,4
DRR-ECF,9884.666666666668,4
DRR-ECF,9885.425000000074,4
DRR-ECF,9885.854166666602,4
DRR-ECF,9886.28333333313,4
DRR-ECF,9887.04583333337,4
DRR-ECF,9887.187499999936,4
DRR-ECF,9887.808333333609,4
DRR-ECF,9888.52083333327,4
DRR-ECF,9889.23333333293,4
DRR-ECF,9889.425000000076,4
DRR-ECF,9889.61666666722,4
DRR-ECF,9889.995833333169,4
DRR-ECF,9890.374999999118,4
DRR-ECF,9891.3291666665,4
DRR-ECF,9891.950000000174,4
DRR-ECF,9892.283333333886,4
DRR-ECF,9893.091666666362,4
DRR-ECF,9893.899999998837,4
DRR-ECF,9894.045833333745,4
DRR-ECF,9894.191666668654,4
DRR-ECF,9894.424999999694,4
DRR-ECF,9894.658333330735,4
DRR-ECF,9895.758333333026,4
DRR-ECF,9896.283333333882,4
DRR-ECF,9896.858333335318,4
DRR-ECF,9897.470833332309,4
DRR-ECF,9898.083333329298,4
DRR-ECF,9898.570833334603,4
DRR-ECF,9898.804166665646,4
DRR-ECF,9899.058333339906,4
DRR-ECF,9900.13749999898,4
DRR-ECF,9900.858333335324,4
DRR-ECF,9901.216666658054,4
DRR-ECF,9901.704166663352,4
DRR-ECF,9902.19166666865,4
DRR-ECF,9903.037499996684,4
DRR-ECF,9903.291666670944,4
DRR-ECF,9903.883333324718,4
DRR-ECF,9904.625000004278,4
DRR-ECF,9905.366666683836,4
DRR-ECF,9905.470833332314,4
DRR-ECF,9905.57499998079,4
DRR-ECF,9905.958333337614,4
DRR-ECF,9906.341666694438,4
DRR-ECF,9907.291666670946,4
DRR-ECF,9907.88333332472,4
DRR-ECF,9908.241666647456,4
DRR-ECF,9909.112500009576,4
DRR-ECF,9909.983333371694,4
DRR-ECF,9910.062499986085,4
DRR-ECF,9910.141666600477,4
DRR-ECF,9910.44583334291,4
DRR-ECF,9910.750000085342,4
DRR-ECF,9911.779166676242,4
DRR-ECF,9912.241666647456,4
DRR-ECF,9912.808333267145,4
DRR-ECF,9913.4958333664,4
DRR-ECF,9914.183333465653,4
DRR-ECF,9914.5249999573,4
DRR-ECF,9914.829166699732,4
DRR-ECF,9914.866666448948,4
DRR-ECF,9916.162500033064,4
DRR-ECF,9916.808333267143,4
DRR-ECF,9917.458333617182,4
DRR-ECF,9917.80000010883,4
DRR-ECF,9918.141666600475,4
DRR-ECF,9919.133333442163,4
DRR-ECF,9919.170833191381,4
DRR-ECF,9920.125000283851,4
DRR-ECF,9920.504166524715,4
DRR-ECF,9920.883332765578,4
DRR-ECF,9921.495833366402,4
DRR-ECF,9921.837499858048,4
DRR-ECF,9922.108333967224,4
DRR-ECF,9923.17083319138,4
DRR-ECF,9924.12500028385,4
DRR-ECF,9924.233332415537,4
DRR-ECF,9924.84583301636,4
DRR-ECF,9925.458333617182,4
DRR-ECF,9926.179166349692,4
DRR-ECF,9926.45000045887,4
DRR-ECF,9926.899999082203,4
DRR-ECF,9927.783333792202,4
DRR-ECF,9928.504166524712,4
DRR-ECF,9928.666668502203,4
DRR-ECF,9929.116667125536,4
DRR-ECF,9929.566665748867,4
DRR-ECF,9930.450000458868,4
DRR-ECF,9930.899999082201,4
DRR-ECF,9931.333335168869,4
DRR-ECF,9932.233332415535,4
DRR-ECF,9933.116667125536,4
DRR-ECF,9933.133329662202,4
DRR-ECF,9933.56666574887,4
DRR-ECF,9934.000001835537,4
DRR-ECF,9934.899999082203,4
DRR-ECF,9935.33333516887,4
DRR-ECF,9935.79999632887,4
DRR-ECF,9936.666668502203,4
DRR-ECF,9937.533340675538,4
DRR-ECF,9937.56666574887,4
DRR-ECF,9937.599990822198,4
DRR-ECF,9938.000001835537,4
DRR-ECF,9938.400012848875,4
DRR-ECF,9939.33333516887,4
DRR-ECF,9939.799996328871,4
DRR-ECF,9940.266657488864,4
DRR-ECF,9941.100004588874,4
DRR-ECF,9941.933351688882,4
DRR-ECF,9942.03332690887,4
DRR-ECF,9942.133302128856,4
DRR-ECF,9942.433337922208,4
DRR-ECF,9942.733373715559,4
DRR-ECF,9943.76667125554,4
DRR-ECF,9944.266657488864,4
DRR-ECF,9944.799968795523,4
DRR-ECF,9945.50001560221,4
DRR-ECF,9946.200062408896,4
DRR-ECF,9946.533313142192,4
DRR-ECF,9946.833348935543,4
DRR-ECF,9946.866563875488,4
DRR-ECF,9948.166682268875,4
DRR-ECF,9948.799968795522,4
DRR-ECF,9949.466800662263,4
DRR-ECF,9949.80005139556,4
DRR-ECF,9950.133302128854,4
DRR-ECF,9951.133384728893,4
DRR-ECF,9951.16659966884,4
DRR-ECF,9952.133467328933,4
DRR-ECF,9952.499933002175,4
DRR-ECF,9952.866398675415,4
DRR-ECF,9953.500015602212,4
DRR-ECF,9953.833266335507,4
DRR-ECF,9954.133632529009,4
DRR-ECF,9955.166599668839,4
DRR-ECF,9956.133467328931,4
DRR-ECF,9956.199566808671,4
DRR-ECF,9956.833183735467,4
DRR-ECF,9957.466800662263,4
DRR-ECF,9958.1665170688,4
DRR-ECF,9958.466883262303,4
DRR-ECF,9958.866233475337,4
DRR-ECF,9959.800216595635,4
DRR-ECF,9960.499933002171,4
DRR-ECF,9960.734199715935,4
DRR-ECF,9961.133549928969,4
DRR-ECF,9961.532900142001,4
DRR-ECF,9962.466883262301,4
DRR-ECF,9962.866233475335,4
DRR-ECF,9963.4008663826,4
DRR-ECF,9964.19956680867,4
DRR-ECF,9964.998267234738,4
DRR-ECF,9965.133549928969,4
DRR-ECF,9965.2688326232,4
DRR-ECF,9965.532900142003,4
DRR-ECF,9965.796967660806,4
DRR-ECF,9966.866233475337,4
DRR-ECF,9967.400866382603,4
DRR-ECF,9967.935499289868,4
DRR-ECF,9968.598917021704,4
DRR-ECF,9969.262334753541,4
DRR-ECF,9969.668182836234,4
DRR-ECF,9969.932250355037,4
DRR-ECF,9970.074030918926,4
DRR-ECF,9971.265583688371,4
DRR-ECF,9971.93549928987,4
DRR-ECF,9972.457136457815,4
DRR-ECF,9972.86298454051,4
DRR-ECF,9973.268832623204,4
DRR-ECF,9974.196317873844,4
DRR-ECF,9974.338098437733,4
DRR-ECF,9975.123803124483,4
DRR-ECF,9975.671431771065,4
DRR-ECF,9976.219060417649,4
DRR-ECF,9976.598917021704,4
DRR-ECF,9976.978773625759,4
DRR-ECF,9977.004765104397,4
DRR-ECF,9977.030756583034,4
DRR-ECF,9978.338098437729,4
DRR-ECF,9979.12380312448,4
DRR-ECF,9979.645440292426,4
DRR-ECF,9980.077279853758,4
DRR-ECF,9980.509119415088,4
DRR-ECF,9981.384621708454,4
DRR-ECF,9981.41061318709,4
DRR-ECF,9982.26012400182,4
DRR-ECF,9982.743946520424,4
DRR-ECF,9983.22776903903,4
DRR-ECF,9983.645440292426,4
DRR-ECF,9984.063111545822,4
DRR-ECF,9984.103271332395,4
DRR-ECF,9984.143431118966,4
DRR-ECF,9985.436604665729,4
DRR-ECF,9986.286115480458,4
DRR-ECF,9986.729778212492,4
DRR-ECF,9987.201777560394,4
DRR-ECF,9987.673776908297,4
DRR-ECF,9988.494951107155,4
DRR-ECF,9988.535110893727,4
DRR-ECF,9989.316125306012,4
DRR-ECF,9989.86844422706,4
DRR-ECF,9990.420763148108,4
DRR-ECF,9990.729778212492,4
DRR-ECF,9991.038793276874,4
DRR-ECF,9991.241937346967,4
DRR-ECF,9991.445081417061,4
DRR-ECF,9992.5752706803,4
DRR-ECF,9993.356285092585,4
DRR-ECF,9993.70545994354,4
DRR-ECF,9994.380603361535,4
DRR-ECF,9995.055746779528,4
DRR-ECF,9995.510792624773,4
DRR-ECF,9995.713936694869,4
DRR-ECF,9995.96583847002,4
DRR-ECF,9997.0472700282,4
DRR-ECF,9997.70545994354,4
DRR-ECF,9998.128701586384,4
DRR-ECF,9998.583747431629,4
DRR-ECF,9999.038793276872,4
DRR-ECF,9999.91708076496,4
DRR-ECF,10000.168982540112,4
DRR-ECF,10000.795368253051,4
DRR-ECF,10001.502315873444,4
DRR-ECF,10002.209263493838,4
DRR-ECF,10002.380603361533,4
DRR-ECF,10002.551943229228,4
DRR-ECF,10002.835649206776,4
DRR-ECF,10003.119355184326,4
DRR-ECF,10004.16898254011,4
DRR-ECF,10004.795368253051,4
DRR-ECF,10005.218609895894,4
DRR-ECF,10005.95736171869,4
DRR-ECF,10006.696113541486,4
DRR-ECF,10007.006989074476,4
DRR-ECF,10007.290695052026,4
DRR-ECF,10007.317864607465,4
DRR-ECF,10008.624028385359,4
DRR-ECF,10009.218609895895,4
DRR-ECF,10009.930192163254,4
DRR-ECF,10010.241067696239,4
DRR-ECF,10010.551943229224,4
DRR-ECF,10011.574401029571,4
DRR-ECF,10011.601570585011,4
DRR-ECF,10012.59685882992,4
DRR-ECF,10012.934903918343,4
DRR-ECF,10013.272949006769,4
DRR-ECF,10013.95736171869,4
DRR-ECF,10014.268237251677,4
DRR-ECF,10014.641774430615,4
DRR-ECF,10015.60157058501,4
DRR-ECF,10016.116960752723,4
DRR-ECF,10016.632350920434,4
DRR-ECF,10016.765881374135,4
DRR-ECF,10016.899411827833,4
DRR-ECF,10018.099214707467,4
DRR-ECF,10019.299017587102,4
DRR-ECF,10019.4325480408,4
DRR-ECF,10020.183725979572,4
DRR-ECF,10020.934903918342,4
DRR-ECF,10021.383528859205,4
DRR-ECF,10021.517059312904,4
DRR-ECF,10021.83215380007,4
DRR-ECF,10022.850392646236,4
DRR-ECF,10022.923428617714,4
DRR-ECF,10022.996464589194,4
DRR-ECF,10023.808137010183,4
DRR-ECF,10024.619809431173,4
DRR-ECF,10025.141470343517,4
DRR-ECF,10025.66313125586,4
DRR-ECF,10026.47480367685,4
DRR-ECF,10027.329264828211,4
DRR-ECF,10027.850925740557,4
DRR-ECF,10028.18372597957,4
DRR-ECF,10028.662598161547,4
DRR-ECF,10029.141470343524,4
DRR-ECF,10029.995931494881,4
DRR-ECF,10030.047573101176,4
DRR-ECF,10030.099214707468,4
DRR-ECF,10031.380906434508,4
DRR-ECF,10032.235367585865,4
DRR-ECF,10032.662598161549,4
DRR-ECF,10033.568700919197,4
DRR-ECF,10034.397341267411,4
DRR-ECF,10034.448982873706,4
DRR-ECF,10035.225981615627,4
DRR-ECF,10035.782316207038,4
DRR-ECF,10036.338650798449,4
DRR-ECF,10037.115649540372,4
DRR-ECF,10037.231843154528,4
DRR-ECF,10037.348036768686,4
DRR-ECF,10038.56517648786,4
DRR-ECF,10039.342175229784,4
DRR-ECF,10039.782316207034,4
DRR-ECF,10040.675508563118,4
DRR-ECF,10041.446052104253,4
DRR-ECF,10041.562245718413,4
DRR-ECF,10042.216595645388,4
DRR-ECF,10042.895579051747,4
DRR-ECF,10043.574562458103,4
DRR-ECF,10044.228912385079,4
DRR-ECF,10044.46452721379,4
DRR-ECF,10044.7001420425,4
DRR-ECF,10045.797860547122,4
DRR-ECF,10046.452210474097,4
DRR-ECF,10046.895579051745,4
DRR-ECF,10047.785543807431,4
DRR-ECF,10048.43827993421,4
DRR-ECF,10048.673894762922,4
DRR-ECF,10049.09101606099,4
DRR-ECF,10050.007228096254,4
DRR-ECF,10050.92344013152,4
DRR-ECF,10051.340561429588,4
DRR-ECF,10051.81259798711,4
DRR-ECF,10052.28463454463,4
DRR-ECF,10053.145931320441,4
DRR-ECF,10053.563052618509,4
DRR-ECF,10054.007228096254,4
DRR-ECF,10054.89638595184,4
DRR-ECF,10055.31310379986,4
DRR-ECF,10055.72982164788,4
DRR-ECF,10055.78514035738,4
DRR-ECF,10055.840459066883,4
DRR-ECF,10057.118473690714,4
DRR-ECF,10058.396488314545,4
DRR-ECF,10058.451807024048,4
DRR-ECF,10059.34076315461,4
DRR-ECF,10060.229719285175,4
DRR-ECF,10060.618777778443,4
DRR-ECF,10060.674096487946,4
DRR-ECF,10061.00783627171,4
DRR-ECF,10061.234096487946,3
DRR-ECF,10061.565343582599,3
DRR-ECF,10061.896590677252,3
DRR-ECF,10062.509618422664,3
DRR-ECF,10063.122646168076,3
DRR-ECF,10063.842951755996,3
DRR-ECF,10064.563257343918,3
DRR-ECF,10064.845037994677,3
DRR-ECF,10065.126818645436,3
DRR-ECF,10065.565343582599,3
DRR-ECF,10066.00386851976,3
DRR-ECF,10066.178371328013,3
DRR-ECF,10066.352874136264,3
DRR-ECF,10067.229924010586,3
DRR-ECF,10068.10697388491,3
DRR-ECF,10068.124732406757,3
DRR-ECF,10068.142490928603,3
DRR-ECF,10069.283562931838,3
DRR-ECF,10069.73984639085,3
DRR-ECF,10070.424634935072,3
DRR-ECF,10071.055421202336,3
DRR-ECF,10071.247682532434,3
DRR-ECF,10071.6862074696,3
DRR-ECF,10072.581015865766,3
DRR-ECF,10073.283562931836,3
DRR-ECF,10073.475824261934,3
DRR-ECF,10074.61689626517,3
DRR-ECF,10075.055421202338,3
DRR-ECF,10075.757968268406,3
DRR-ECF,10076.38875453567,3
DRR-ECF,10076.581015865768,3
DRR-ECF,10077.019540802934,3
DRR-ECF,10077.9143491991,3
DRR-ECF,10078.61689626517,3
DRR-ECF,10078.809157595266,3
DRR-ECF,10079.950229598504,3
DRR-ECF,10080.388754535672,3
DRR-ECF,10081.09130160174,3
DRR-ECF,10081.722087869006,3
DRR-ECF,10081.914349199102,3
DRR-ECF,10082.35287413627,3
DRR-ECF,10083.247682532434,3
DRR-ECF,10083.950229598502,3
DRR-ECF,10084.1424909286,3
DRR-ECF,10085.283562931834,3
DRR-ECF,10085.722087869004,3
DRR-ECF,10086.42463493507,3
DRR-ECF,10087.055421202336,3
DRR-ECF,10087.247682532434,3
DRR-ECF,10087.686207469604,3
DRR-ECF,10088.581015865766,3
DRR-ECF,10089.283562931832,3
DRR-ECF,10089.47582426193,3
DRR-ECF,10090.616896265166,3
DRR-ECF,10091.055421202338,3
DRR-ECF,10091.757968268403,3
DRR-ECF,10092.388754535672,3
DRR-ECF,10092.58101586577,3
DRR-ECF,10093.019540802941,3
DRR-ECF,10093.914349199102,3
DRR-ECF,10094.616896265166,3
DRR-ECF,10094.809157595262,3
DRR-ECF,10095.9502295985,3
DRR-ECF,10096.388754535674,3
DRR-ECF,10097.091301601737,3
DRR-ECF,10097.722087869006,3
DRR-ECF,10097.914349199102,3
DRR-ECF,10098.352874136277,3
DRR-ECF,10099.247682532434,3
DRR-ECF,10099.950229598498,3
DRR-ECF,10100.142490928592,3
DRR-ECF,10101.28356293183,3
DRR-ECF,10101.722087869008,3
DRR-ECF,10102.42463493507,3
DRR-ECF,10103.05542120234,3
DRR-ECF,10103.247682532434,3
DRR-ECF,10103.686207469611,3
DRR-ECF,10104.581015865766,3
DRR-ECF,10105.283562931829,3
DRR-ECF,10105.475824261923,3
DRR-ECF,10106.616896265163,3
DRR-ECF,10107.055421202342,3
DRR-ECF,10107.757968268403,3
DRR-ECF,10108.388754535676,3
DRR-ECF,10108.58101586577,3
DRR-ECF,10109.019540802949,3
DRR-ECF,10109.914349199102,3
DRR-ECF,10110.616896265163,3
DRR-ECF,10110.809157595255,3
DRR-ECF,10111.950229598497,3
DRR-ECF,10112.388754535677,3
DRR-ECF,10113.091301601737,3
DRR-ECF,10113.72208786901,3
DRR-ECF,10113.914349199102,3
DRR-ECF,10114.352874136284,3
DRR-ECF,10115.247682532434,3
DRR-ECF,10115.950229598495,3
DRR-ECF,10116.142490928585,3
DRR-ECF,10117.283562931827,3
DRR-ECF,10117.722087869011,3
DRR-ECF,10118.42463493507,3
DRR-ECF,10119.055421202343,3
DRR-ECF,10119.247682532434,3
DRR-ECF,10119.686207469618,3
DRR-ECF,10120.581015865766,3
DRR-ECF,10121.283562931825,3
DRR-ECF,10121.475824261915,3
DRR-ECF,10122.616896265159,3
DRR-ECF,10123.055421202345,3
DRR-ECF,10123.757968268403,3
DRR-ECF,10124.38875453568,3
DRR-ECF,10124.58101586577,3
DRR-ECF,10125.019540802956,3
DRR-ECF,10125.914349199102,3
DRR-ECF,10126.616896265159,3
DRR-ECF,10126.809157595248,3
DRR-ECF,10127.950229598493,3
DRR-ECF,10128.388754535681,3
DRR-ECF,10129.091301601737,3
DRR-ECF,10129.722087869013,3
DRR-ECF,10129.914349199102,3
DRR-ECF,10130.352874136292,3
DRR-ECF,10131.247682532434,3
DRR-ECF,10132.133611667696,3
DRR-ECF,10133.019540802958,3
DRR-ECF,10133.46694500103,3
DRR-ECF,10133.690647100066,3
DRR-ECF,10133.9143491991,3
DRR-ECF,10135.0239804334,3
DRR-ECF,10135.578796050548,3
DRR-ECF,10136.133611667694,3
DRR-ECF,10136.91212938388,3
DRR-ECF,10137.301388241973,3
DRR-ECF,10137.690647100066,3
DRR-ECF,10138.634721575307,3
DRR-ECF,10139.106758812926,3
DRR-ECF,10139.578796050546,3
DRR-ECF,10140.44009214626,3
DRR-ECF,10140.870740194117,3
DRR-ECF,10141.301388241973,3
DRR-ECF,10142.20407352745,3
DRR-ECF,10142.655416170188,3
DRR-ECF,10143.106758812926,3
DRR-ECF,10143.988749503522,3
DRR-ECF,10144.429744848818,3
DRR-ECF,10144.870740194116,3
DRR-ECF,10145.763078182152,3
DRR-ECF,10146.209247176172,3
DRR-ECF,10146.65541617019,3
DRR-ECF,10147.542580509504,3
DRR-ECF,10147.98616267916,3
DRR-ECF,10148.429744848818,3
DRR-ECF,10149.319496012495,3
DRR-ECF,10149.764371594332,3
DRR-ECF,10150.20924717617,3
DRR-ECF,10151.097704927666,3
DRR-ECF,10151.541933803413,3
DRR-ECF,10151.98616267916,3
DRR-ECF,10152.875267136747,3
DRR-ECF,10153.31981936554,3
DRR-ECF,10153.764371594334,3
DRR-ECF,10154.653152698873,3
DRR-ECF,10155.097543251144,3
DRR-ECF,10155.541933803413,3
DRR-ECF,10156.430876584478,3
DRR-ECF,10156.875347975008,3
DRR-ECF,10157.319819365537,3
DRR-ECF,10158.20868130834,3
DRR-ECF,10158.653112279742,3
DRR-ECF,10159.097543251144,3
DRR-ECF,10159.986445613076,3
DRR-ECF,10160.430896794041,3
DRR-ECF,10160.875347975007,3
DRR-ECF,10161.764230127375,3
DRR-ECF,10162.20867120356,3
DRR-ECF,10162.653112279742,3
DRR-ECF,10163.195337870226,2
DRR-ECF,10163.813117332133,2
DRR-ECF,10164.430896794041,2
DRR-ECF,10165.862004536893,2
DRR-ECF,10170.0,3
DRR-ECF,10172.666666666666,3
DRR-ECF,10188.735664398218,2
DRR-ECF,10190.068997731552,2
DRR-ECF,10191.402331064886,2
DRR-ECF,10191.815664398218,1
DRR-ECF,10193.148997731552,1
DRR-ECF,10194.482331064884,1
DRR-ECF,10195.815664398218,1
DRR-ECF,10197.14899773155,1
DRR-ECF,10198.482331064884,1
DRR-ECF,10199.815664398217,1
DRR-ECF,10201.14899773155,1
DRR-ECF,10202.482331064883,1
DRR-ECF,10203.815664398217,1
DRR-ECF,10205.148997731549,1
DRR-ECF,10206.482331064883,1
DRR-ECF,10207.815664398215,1
DRR-ECF,10209.148997731549,1
DRR-ECF,10210.48233106488,1
DRR-ECF,10211.815664398215,1
DRR-ECF,10213.148997731547,1
DRR-ECF,10214.48233106488,1
DRR-ECF,10215.815664398213,1
DRR-ECF,10217.148997731547,1
DRR-ECF,10218.482331064879,1
DRR-ECF,10219.815664398213,1
DRR-ECF,10221.148997731545,1
DRR-ECF,10222.482331064879,1
DRR-ECF,10223.815664398211,1
DRR-ECF,10225.148997731545,1
DRR-ECF,10226.482331064877,1
DRR-ECF,10227.815664398211,1
DRR-ECF,10229.148997731543,1
DRR-ECF,10230.482331064877,1
DRR-ECF,10231.81566439821,1
DRR-ECF,10233.148997731543,1
DRR-ECF,10234.482331064875,1
DRR-ECF,10235.81566439821,1
DRR-ECF,10237.148997731541,1
DRR-ECF,10238.482331064875,1
DRR-ECF,10239.815664398207,1
DRR-ECF,10241.148997731541,1
DRR-ECF,10242.482331064874,1
DRR-ECF,10243.815664398207,1
DRR-ECF,10245.14899773154,1
DRR-ECF,10246.482331064874,1
DRR-ECF,10247.815664398206,1
DRR-ECF,10249.14899773154,1
DRR-ECF,10250.482331064872,1
DRR-ECF,10251.815664398206,1
DRR-ECF,10253.148997731538,1
DRR-ECF,10254.482331064872,1
DRR-ECF,10255.815664398204,1
DRR-ECF,10257.148997731538,1
DRR-ECF,10258.48233106487,1
DRR-ECF,10259.815664398204,1
DRR-ECF,10261.148997731536,1
DRR-ECF,10262.48233106487,1
DRR-ECF,10263.815664398202,1
DRR-ECF,10265.148997731536,1
DRR-ECF,10266.482331064868,1
DRR-ECF,10267.815664398202,1
DRR-ECF,10269.148997731534,1
DRR-ECF,10270.482331064868,1
DRR-ECF,10271.8156643982,1
DRR-ECF,10273.148997731534,1
DRR-ECF,10274.482331064866,1
DRR-ECF,10275.8156643982,1
DRR-ECF,10277.148997731532,1
DRR-ECF,10278.482331064866,1
DRR-ECF,10279.815664398198,1
DRR-ECF,10281.148997731532,1
DRR-ECF,10282.482331064864,1
DRR-ECF,10283.815664398198,1
DRR-ECF,10285.14899773153,1
DRR-ECF,10286.482331064864,1
DRR-ECF,10287.815664398197,1
DRR-ECF,10289.14899773153,1
DRR-ECF,10290.482331064863,1
DRR-ECF,10291.815664398197,1
DRR-ECF,10293.148997731529,1
DRR-ECF,10294.482331064863,1
DRR-ECF,10295.815664398195,1
DRR-ECF,10297.148997731529,1
DRR-ECF,10298.48233106486,1
DRR-ECF,10299.815664398195,1
DRR-ECF,10301.148997731527,1
DRR-ECF,10302.48233106486,1
DRR-ECF,10303.815664398193,1
DRR-ECF,10305.148997731527,1
DRR-ECF,10306.482331064859,1
DRR-ECF,10307.815664398193,1
DRR-ECF,10309.148997731525,1
DRR-ECF,10310.482331064859,1
DRR-ECF,10311.815664398191,1
DRR-ECF,10313.148997731525,1
DRR-ECF,10314.482331064857,1
DRR-ECF,10315.815664398191,1
DRR-ECF,10317.148997731523,1
DRR-ECF,10318.482331064857,1
DRR-ECF,10319.81566439819,1
DRR-ECF,10321.148997731523,1
DRR-ECF,10322.482331064855,1
DRR-ECF,10323.81566439819,1
DRR-ECF,10325.148997731521,1
DRR-ECF,10326.482331064855,1
DRR-ECF,10327.815664398187,1
DRR-ECF,10329.148997731521,1
DRR-ECF,10330.482331064853,1
DRR-ECF,10331.815664398187,1
DRR-ECF,10333.14899773152,1
DRR-ECF,10334.482331064853,1
DRR-ECF,10335.815664398186,1
DRR-ECF,10337.14899773152,1
DRR-ECF,10338.482331064852,1
DRR-ECF,10339.815664398186,1
DRR-ECF,10341.148997731518,1
DRR-ECF,10342.482331064852,1
DRR-ECF,10343.815664398184,1
DRR-ECF,10345.148997731518,1
DRR-ECF,10346.48233106485,1
DRR-ECF,10347.815664398184,1
DRR-ECF,10349.148997731516,1
DRR-ECF,10350.48233106485,1
DRR-ECF,10351.815664398182,1
DRR-ECF,10353.148997731516,1
DRR-ECF,10354.482331064848,1
DRR-ECF,10355.815664398182,1
DRR-ECF,10357.148997731514,1
DRR-ECF,10358.482331064848,1
DRR-ECF,10359.81566439818,1
DRR-ECF,10361.148997731514,1
DRR-ECF,10362.482331064846,1
DRR-ECF,10363.81566439818,1
DRR-ECF,10365.148997731512,1
DRR-ECF,10366.482331064846,1
DRR-ECF,10367.815664398178,1
DRR-ECF,10369.148997731512,1
DRR-ECF,10370.482331064844,1
DRR-ECF,10371.815664398178,1
DRR-ECF,10373.14899773151,1
DRR-ECF,10374.482331064844,1
DRR-ECF,10375.815664398177,1
DRR-ECF,10377.14899773151,1
DRR-ECF,10378.482331064843,1
DRR-ECF,10379.815664398177,1
DRR-ECF,10381.148997731509,1
DRR-ECF,10382.482331064843,1
DRR-ECF,10383.815664398175,1
DRR-ECF,10385.148997731509,1
DRR-ECF,10386.48233106484,1
DRR-ECF,10387.815664398175,1
DRR-ECF,10389.148997731507,1
DRR-ECF,10390.48233106484,1
DRR-ECF,10391.815664398173,1
DRR-ECF,10393.148997731507,1
DRR-ECF,10394.482331064839,1
DRR-ECF,10395.815664398173,1
DRR-ECF,10397.148997731505,1
DRR-ECF,10398.482331064839,1
DRR-ECF,10399.815664398171,1
DRR-ECF,10401.148997731505,1
DRR-ECF,10402.482331064837,1
DRR-ECF,10403.815664398171,1
DRR-ECF,10405.148997731503,1
DRR-ECF,10406.482331064837,1
DRR-ECF,10407.81566439817,1
DRR-ECF,10409.148997731503,1
DRR-ECF,10410.482331064835,1
DRR-ECF,10411.81566439817,1
DRR-ECF,10413.148997731501,1
DRR-ECF,10414.482331064835,1
DRR-ECF,10415.815664398167,1
DRR-ECF,10417.148997731501,1
DRR-ECF,10418.482331064833,1
DRR-ECF,10419.815664398167,1
DRR-ECF,10421.1489977315,1
DRR-ECF,10422.482331064833,1
DRR-ECF,10423.815664398166,1
DRR-ECF,10425.1489977315,1
DRR-ECF,10426.482331064832,1
DRR-ECF,10427.815664398166,1
DRR-ECF,10429.148997731498,1
DRR-ECF,10430.482331064832,1
DRR-ECF,10431.815664398164,1
DRR-ECF,10433.148997731498,1
DRR-ECF,10434.48233106483,1
DRR-ECF,10435.815664398164,1
DRR-ECF,10437.148997731496,1
DRR-ECF,10438.48233106483,1
DRR-ECF,10439.815664398162,1
DRR-ECF,10441.148997731496,1
DRR-ECF,10442.482331064828,1
DRR-ECF,10443.815664398162,1
DRR-ECF,10445.148997731494,1
DRR-ECF,10446.482331064828,1
DRR-ECF,10447.81566439816,1
DRR-ECF,10449.148997731494,1
DRR-ECF,10450.482331064826,1
DRR-ECF,10451.81566439816,1
DRR-ECF,10453.148997731492,1
DRR-ECF,10454.482331064826,1
DRR-ECF,10455.815664398158,1
DRR-ECF,10457.148997731492,1
DRR-ECF,10458.482331064824,1
DRR-ECF,10459.815664398158,1
DRR-ECF,10461.14899773149,1
DRR-ECF,10462.482331064824,1
DRR-ECF,10463.815664398157,1
DRR-ECF,10465.14899773149,1
DRR-ECF,10466.482331064823,1
DRR-ECF,10467.815664398157,1
DRR-ECF,10469.148997731489,1
DRR-ECF,10470.482331064823,1
DRR-ECF,10471.815664398155,1
DRR-ECF,10473.148997731489,1
DRR-ECF,10474.48233106482,1
DRR-ECF,10475.815664398155,1
DRR-ECF,10477.148997731487,1
DRR-ECF,10478.48233106482,1
DRR-ECF,10479.815664398153,1
DRR-ECF,10481.148997731487,1
DRR-ECF,10482.482331064819,1
DRR-ECF,10483.815664398153,1
DRR-ECF,10485.148997731485,1
DRR-ECF,10486.482331064819,1
DRR-ECF,10487.815664398151,1
DRR-ECF,10489.148997731485,1
DRR-ECF,10490.482331064817,1
DRR-ECF,10491.815664398151,1
DRR-ECF,10493.148997731483,1
DRR-ECF,10494.482331064817,1
DRR-ECF,10495.81566439815,1
DRR-ECF,10497.148997731483,1
DRR-ECF,10498.482331064815,1
DRR-ECF,10499.81566439815,1
DRR-ECF,10501.148997731481,1
DRR-ECF,10502.482331064815,1
DRR-ECF,10503.815664398147,1
DRR-ECF,10505.148997731481,1
DRR-ECF,10506.482331064813,1
DRR-ECF,10507.815664398147,1
DRR-ECF,10509.14899773148,1
DRR-ECF,10510.482331064813,1
DRR-ECF,10511.815664398146,1
DRR-ECF,10513.14899773148,1
DRR-ECF,10514.482331064812,1
DRR-ECF,10515.815664398146,1
DRR-ECF,10517.148997731478,1
DRR-ECF,10518.482331064812,1
DRR-ECF,10519.815664398144,1
DRR-ECF,10521.148997731478,1
DRR-ECF,10522.48233106481,1
DRR-ECF,10523.815664398144,1
DRR-ECF,10525.148997731476,1
DRR-ECF,10526.48233106481,1
DRR-ECF,10527.815664398142,1
DRR-ECF,10529.148997731476,1
DRR-ECF,10530.482331064808,1
DRR-ECF,10531.815664398142,1
DRR-ECF,10533.148997731474,1
DRR-ECF,10534.482331064808,1
DRR-ECF,10535.81566439814,1
DRR-ECF,10537.148997731474,1
DRR-ECF,10538.482331064806,1
DRR-ECF,10539.81566439814,1
DRR-ECF,10541.148997731472,1
DRR-ECF,10542.482331064806,1
DRR-ECF,10543.815664398138,1
DRR-ECF,10545.148997731472,1
DRR-ECF,10546.482331064804,1
DRR-ECF,10547.815664398138,1
DRR-ECF,10549.14899773147,1
DRR-ECF,10550.482331064804,1
DRR-ECF,10551.815664398137,1
DRR-ECF,10553.14899773147,1
DRR-ECF,10554.482331064803,1
DRR-ECF,10555.815664398137,1
DRR-ECF,10557.148997731469,1
DRR-ECF,10558.482331064803,1
DRR-ECF,10559.815664398135,1
DRR-ECF,10561.148997731469,1
DRR-ECF,10562.4823310648,1
DRR-ECF,10563.815664398135,1
DRR-ECF,10565.148997731467,1
DRR-ECF,10566.4823310648,1
DRR-ECF,10567.815664398133,1
DRR-ECF,10569.148997731467,1
DRR-ECF,10570.482331064799,1
DRR-ECF,10571.815664398133,1
DRR-ECF,10573.148997731465,1
DRR-ECF,10574.482331064799,1
DRR-ECF,10575.815664398131,1
DRR-ECF,10577.148997731465,1
DRR-ECF,10578.482331064797,1
DRR-ECF,10579.815664398131,1
DRR-ECF,10581.148997731463,1
DRR-ECF,10582.482331064797,1
DRR-ECF,10583.81566439813,1
DRR-ECF,10585.148997731463,1
DRR-ECF,10586.482331064795,1
DRR-ECF,10587.81566439813,1
DRR-ECF,10589.148997731461,1
DRR-ECF,10590.482331064795,1
DRR-ECF,10591.815664398127,1
DRR-ECF,10593.148997731461,1
DRR-ECF,10594.482331064793,1
DRR-ECF,10595.815664398127,1
DRR-ECF,10597.14899773146,1
DRR-ECF,10598.482331064793,1
DRR-ECF,10599.815664398126,1
DRR-ECF,10601.14899773146,1
DRR-ECF,10602.482331064792,1
DRR-ECF,10603.815664398126,1
DRR-ECF,10605.148997731458,1
DRR-ECF,10606.482331064792,1
DRR-ECF,10607.815664398124,1
DRR-ECF,10609.148997731458,1
DRR-ECF,10610.48233106479,1
DRR-ECF,10611.815664398124,1
DRR-ECF,10613.148997731456,1
DRR-ECF,10614.48233106479,1
DRR-ECF,10615.815664398122,1
DRR-ECF,10617.148997731456,1
DRR-ECF,10618.482331064788,1
DRR-ECF,10619.815664398122,1
DRR-ECF,10621.148997731454,1
DRR-ECF,10622.482331064788,1
DRR-ECF,10623.81566439812,1
DRR-ECF,10625.148997731454,1
DRR-ECF,10626.482331064786,1
DRR-ECF,10627.81566439812,1
DRR-ECF,10629.148997731452,1
DRR-ECF,10630.482331064786,1
DRR-ECF,10631.815664398118,1
DRR-ECF,10633.148997731452,1
DRR-ECF,10634.482331064784,1
DRR-ECF,10635.815664398118,1
DRR-ECF,10637.14899773145,1
DRR-ECF,10638.482331064784,1
DRR-ECF,10639.815664398116,1
DRR-ECF,10641.14899773145,1
DRR-ECF,10642.482331064783,1
DRR-ECF,10643.815664398116,1
DRR-ECF,10645.148997731449,1
DRR-ECF,10646.482331064783,1
DRR-ECF,10647.815664398115,1
DRR-ECF,10649.148997731449,1
DRR-ECF,10650.48233106478,1
DRR-ECF,10651.815664398115,1
DRR-ECF,10653.148997731447,1
DRR-ECF,10654.48233106478,1
DRR-ECF,10655.815664398113,1
DRR-ECF,10657.148997731447,1
DRR-ECF,10658.482331064779,1
DRR-ECF,10659.815664398113,1
DRR-ECF,10661.148997731445,1
DRR-ECF,10662.482331064779,1
DRR-ECF,10663.815664398111,1
DRR-ECF,10665.148997731445,1
DRR-ECF,10666.482331064777,1
DRR-ECF,10667.815664398111,1
DRR-ECF,10669.148997731443,1
DRR-ECF,10670.482331064777,1
DRR-ECF,10671.81566439811,1
DRR-ECF,10673.148997731443,1
DRR-ECF,10674.482331064775,1
DRR-ECF,10675.81566439811,1
DRR-ECF,10677.148997731441,1
DRR-ECF,10677.282331064891,1
DRR-ECF,10678.41566439805,1
DRR-ECF,10679.748997731383,1
DRR-ECF,10681.082331064717,1
DRR-ECF,10682.415664398051,1
DRR-ECF,10683.748997731385,1
DRR-ECF,10685.08233106472,1
DRR-ECF,10686.415664398053,1
DRR-ECF,10687.748997731387,1
DRR-ECF,10689.082331064721,1
DRR-ECF,10690.415664398055,1
DRR-ECF,10691.748997731389,1
DRR-ECF,10693.082331064723,1
DRR-ECF,10694.415664398057,1
DRR-ECF,10695.74899773139,1
DRR-ECF,10697.082331064725,1
DRR-ECF,10698.415664398059,1
DRR-ECF,10699.748997731393,1
DRR-ECF,10701.082331064727,1
DRR-ECF,10702.41566439806,1
DRR-ECF,10703.748997731394,1
DRR-ECF,10705.082331064728,1
DRR-ECF,10706.415664398062,1
DRR-ECF,10707.748997731396,1
DRR-ECF,10709.08233106473,1
DRR-ECF,10710.415664398064,1
DRR-ECF,10711.748997731398,1
DRR-ECF,10713.082331064732,1
DRR-ECF,10714.415664398066,1
DRR-ECF,10715.7489977314,1
DRR-ECF,10717.082331064734,1
DRR-ECF,10718.415664398068,1
DRR-ECF,10719.748997731402,1
DRR-ECF,10721.082331064736,1
DRR-ECF,10722.41566439807,1
DRR-ECF,10723.748997731404,1
DRR-ECF,10725.082331064737,1
DRR-ECF,10726.415664398071,1
DRR-ECF,10727.748997731405,1
DRR-ECF,10729.08233106474,1
DRR-ECF,10730.415664398073,1
DRR-ECF,10731.748997731407,1
DRR-ECF,10733.082331064741,1
DRR-ECF,10734.415664398075,1
DRR-ECF,10735.748997731409,1
DRR-ECF,10737.082331064743,1
DRR-ECF,10738.415664398077,1
DRR-ECF,10739.74899773141,1
DRR-ECF,10741.082331064745,1
DRR-ECF,10742.415664398079,1
DRR-ECF,10743.748997731413,1
DRR-ECF,10745.082331064747,1
DRR-ECF,10746.41566439808,1
DRR-ECF,10747.748997731414,1
DRR-ECF,10749.082331064748,1
DRR-ECF,10750.415664398082,1
DRR-ECF,10751.748997731416,1
DRR-ECF,10752.282331064891,0
DRR-ECF,11272.0,1
DRR-ECF,11273.333333333334,1
DRR-ECF,11274.666666666666,1
DRR-ECF,11276.0,1
DRR-ECF,11277.333333333332,1
DRR-ECF,11278.666666666666,1
DRR-ECF,11279.999999999998,1
DRR-ECF,11281.333333333332,1
DRR-ECF,11282.666666666664,1
DRR-ECF,11283.999999999998,1
DRR-ECF,11284.075555555555,1
DRR-ECF,11285.295555555553,1
DRR-ECF,11286.628888888887,1
DRR-ECF,11287.96222222222,1
DRR-ECF,11289.295555555555,1
DRR-ECF,11290.628888888888,1
DRR-ECF,11291.962222222222,1
DRR-ECF,11293.295555555556,1
DRR-ECF,11294.62888888889,1
DRR-ECF,11295.962222222224,1
DRR-ECF,11297.295555555558,1
DRR-ECF,11298.628888888892,1
DRR-ECF,11299.962222222226,1
DRR-ECF,11301.29555555556,1
DRR-ECF,11302.628888888894,1
DRR-ECF,11303.962222222228,1
DRR-ECF,11305.295555555562,1
DRR-ECF,11306.628888888896,1
DRR-ECF,11307.96222222223,1
DRR-ECF,11309.295555555564,1
DRR-ECF,11310.628888888898,1
DRR-ECF,11311.962222222232,1
DRR-ECF,11313.295555555565,1
DRR-ECF,11314.6288888889,1
DRR-ECF,11315.962222222233,1
DRR-ECF,11317.295555555567,1
DRR-ECF,11318.628888888901,1
DRR-ECF,11319.962222222235,1
DRR-ECF,11321.295555555569,1
DRR-ECF,11322.628888888903,1
DRR-ECF,11323.962222222237,1
DRR-ECF,11325.29555555557,1
DRR-ECF,11326.628888888905,1
DRR-ECF,11327.962222222239,1
DRR-ECF,11329.295555555573,1
DRR-ECF,11330.628888888907,1
DRR-ECF,11331.96222222224,1
DRR-ECF,11333.295555555575,1
DRR-ECF,11334.628888888908,1
DRR-ECF,11335.962222222242,1
DRR-ECF,11337.295555555576,1
DRR-ECF,11338.62888888891,1
DRR-ECF,11339.962222222244,1
DRR-ECF,11341.295555555578,1
DRR-ECF,11342.628888888912,1
DRR-ECF,11343.962222222246,1
DRR-ECF,11345.29555555558,1
DRR-ECF,11346.628888888914,1
DRR-ECF,11347.962222222248,1
DRR-ECF,11349.295555555582,1
DRR-ECF,11350.628888888916,1
DRR-ECF,11351.96222222225,1
DRR-ECF,11353.295555555584,1
DRR-ECF,11354.628888888918,1
DRR-ECF,11355.962222222252,1
DRR-ECF,11357.295555555585,1
DRR-ECF,11358.62888888892,1
DRR-ECF,11359.075555555555,0
DRR-ECF,11545.0,1
DRR-ECF,11546.333333333334,1
DRR-ECF,11547.666666666668,1
DRR-ECF,11549.000000000002,1
DRR-ECF,11550.333333333336,1
DRR-ECF,11551.66666666667,1
DRR-ECF,11553.000000000004,1
DRR-ECF,11554.333333333338,1
DRR-ECF,11555.666666666672,1
DRR-ECF,11555.986666666666,0
