Scheduler,CompletionTime
FCFS-minRTT,494.9866666666667
FCFS-minRTT,98.76888888888789
FCFS-minRTT,100.02666666666846
FCFS-minRTT,100.97333333333518
SRPT-minRTT,494.9866666666667
SRPT-minRTT,98.76888888888789
SRPT-minRTT,100.02666666666846
SRPT-minRTT,100.97333333333518
SRPT-ECF,458.9866666666667
SRPT-ECF,45.553333333333285
SRPT-ECF,47.44000000000233
SRPT-ECF,49.86000000000058
DRR-ECF,458.98666666666315
DRR-ECF,45.553333333333285
DRR-ECF,50.10666666667021
DRR-ECF,49.86000000000058
