Scheduler,CompletionTime
FCFS-minRTT,184.77333333333308
FCFS-minRTT,342.86222222222204
FCFS-minRTT,437.8311111111111
FCFS-minRTT,632.9644444444443
FCFS-minRTT,776.3955555555553
FCFS-minRTT,938.373333333333
FCFS-minRTT,448.1733333333332
FCFS-minRTT,646.3377777777778
FCFS-minRTT,874.951111111111
FCFS-minRTT,995.0311111111109
FCFS-minRTT,1287.4177777777777
FCFS-minRTT,1576.3155555555559
FCFS-minRTT,1764.6400000000003
FCFS-minRTT,1893.5822222222223
FCFS-minRTT,2063.5200000000004
FCFS-minRTT,2175.8088888888897
FCFS-minRTT,2260.8533333333344
FCFS-minRTT,2528.6577777777793
FCFS-minRTT,2747.5200000000013
FCFS-minRTT,2901.6577777777793
FCFS-minRTT,3028.351111111113
FCFS-minRTT,3274.328888888891
FCFS-minRTT,3495.960000000002
FCFS-minRTT,3767.1644444444464
FCFS-minRTT,3946.644444444446
FCFS-minRTT,4059.1600000000017
FCFS-minRTT,4283.466666666668
FCFS-minRTT,4747.800000000001
FCFS-minRTT,4888.542222222223
FCFS-minRTT,4993.080000000001
FCFS-minRTT,5202.360000000001
FCFS-minRTT,5424.204444444445
FCFS-minRTT,5529.884444444445
FCFS-minRTT,5707.626666666669
FCFS-minRTT,5782.071111111114
FCFS-minRTT,5896.94666666667
FCFS-minRTT,5982.804444444448
FCFS-minRTT,6070.297777777781
FCFS-minRTT,6576.377777777781
FCFS-minRTT,6931.595555555559
FCFS-minRTT,7274.82666666667
FCFS-minRTT,7334.013333333336
FCFS-minRTT,7449.951111111113
FCFS-minRTT,7730.186666666668
FCFS-minRTT,7822.466666666669
FCFS-minRTT,7929.186666666668
FCFS-minRTT,8089.546666666669
FCFS-minRTT,8559.591111111113
FCFS-minRTT,8784.146666666667
FCFS-minRTT,256.9777777777781
SRPT-minRTT,184.77333333333308
SRPT-minRTT,581.2622222222221
SRPT-minRTT,279.74222222222215
SRPT-minRTT,3873.475555555554
SRPT-minRTT,423.1733333333332
SRPT-minRTT,743.2399999999998
SRPT-minRTT,1285.088888888888
SRPT-minRTT,3463.6399999999985
SRPT-minRTT,5013.733333333332
SRPT-minRTT,1638.982222222221
SRPT-minRTT,6660.24
SRPT-minRTT,6365.853333333333
SRPT-minRTT,3067.3422222222207
SRPT-minRTT,1892.6177777777766
SRPT-minRTT,2518.7955555555545
SRPT-minRTT,1163.2888888888879
SRPT-minRTT,350.9155555555549
SRPT-minRTT,5520.515555555555
SRPT-minRTT,3883.7822222222203
SRPT-minRTT,2182.4977777777767
SRPT-minRTT,1757.6755555555546
SRPT-minRTT,5250.71111111111
SRPT-minRTT,4105.413333333331
SRPT-minRTT,5790.719999999999
SRPT-minRTT,2872.0177777777762
SRPT-minRTT,1045.999999999999
SRPT-minRTT,4550.564444444442
SRPT-minRTT,7818.022222222222
SRPT-minRTT,2027.3599999999988
SRPT-minRTT,720.0844444444438
SRPT-minRTT,3662.9199999999983
SRPT-minRTT,4326.257777777776
SRPT-minRTT,825.7644444444436
SRPT-minRTT,2690.5377777777767
SRPT-minRTT,259.8711111111106
SRPT-minRTT,1387.9644444444434
SRPT-minRTT,430.77333333333263
SRPT-minRTT,518.266666666666
SRPT-minRTT,8789.146666666666
SRPT-minRTT,7347.688888888888
SRPT-minRTT,6990.47111111111
SRPT-minRTT,179.42666666666628
SRPT-minRTT,1499.902222222221
SRPT-minRTT,6060.955555555554
SRPT-minRTT,606.5466666666662
SRPT-minRTT,924.4844444444434
SRPT-minRTT,2332.8577777777764
SRPT-minRTT,8278.066666666666
SRPT-minRTT,4765.119999999998
SRPT-minRTT,256.9777777777781
SRPT-ECF,148.77333333333308
SRPT-ECF,545.2622222222217
SRPT-ECF,243.74222222222215
SRPT-ECF,3837.4755555555557
SRPT-ECF,387.1733333333332
SRPT-ECF,707.2399999999993
SRPT-ECF,1249.088888888889
SRPT-ECF,3427.6400000000003
SRPT-ECF,4977.733333333333
SRPT-ECF,1602.982222222222
SRPT-ECF,6624.24
SRPT-ECF,6329.853333333333
SRPT-ECF,3031.3422222222225
SRPT-ECF,1856.6177777777775
SRPT-ECF,2482.7955555555554
SRPT-ECF,1127.9422222222224
SRPT-ECF,315.902222222222
SRPT-ECF,5484.515555555555
SRPT-ECF,3847.782222222222
SRPT-ECF,2146.4977777777776
SRPT-ECF,1721.6755555555555
SRPT-ECF,5214.71111111111
SRPT-ECF,4069.413333333333
SRPT-ECF,5754.719999999999
SRPT-ECF,2836.017777777778
SRPT-ECF,1010.9866666666667
SRPT-ECF,4514.564444444444
SRPT-ECF,7782.022222222222
SRPT-ECF,1991.3599999999997
SRPT-ECF,685.0711111111109
SRPT-ECF,3626.92
SRPT-ECF,4290.257777777778
SRPT-ECF,790.7511111111112
SRPT-ECF,2654.5377777777776
SRPT-ECF,226.52444444444427
SRPT-ECF,1351.9644444444443
SRPT-ECF,395.75999999999976
SRPT-ECF,483.2533333333331
SRPT-ECF,8753.146666666667
SRPT-ECF,7311.688888888888
SRPT-ECF,6954.47111111111
SRPT-ECF,147.74666666666644
SRPT-ECF,1463.902222222222
SRPT-ECF,6024.955555555554
SRPT-ECF,571.5333333333333
SRPT-ECF,889.471111111111
SRPT-ECF,2296.857777777778
SRPT-ECF,8242.066666666668
SRPT-ECF,4729.119999999999
SRPT-ECF,220.9777777777781
